600 8700
1 1 1 1 1 1 1 1 1 1 1 1 1 1 1 1 1 1 1 1 1 1 1 1 1 1 1 1 1 1 1 1 1 1 1 1 1 1 1 1 1 1 1 1 1 1 1 1 1 1 1 1 1 1 1 1 1 1 1 1 1 1 1 1 1 1 1 1 1 1 1 1 1 1 1 1 1 1 1 1 1 1 1 1 1 1 1 1 1 1 1 1 1 1 1 1 1 1 1 1 1 1 1 1 1 1 1 1 1 1 1 1 1 1 1 1 1 1 1 1 1 1 1 1 1 1 1 1 1 1 1 1 1 1 1 1 1 1 1 1 1 1 1 1 1 1 1 1 1 1 1 1 1 1 1 1 1 1 1 1 1 1 1 1 1 1 1 1 1 1 1 1 1 1 1 1 1 1 1 1 1 1 1 1 1 1 1 1 1 1 1 1 1 1 1 1 1 1 1 1 1 1 1 1 1 1 1 1 1 1 1 1 1 1 1 1 1 1 1 1 1 1 1 1 1 1 1 1 1 1 1 1 1 1 1 1 1 1 1 1 1 1 1 1 1 1 1 1 1 1 1 1 1 1 1 1 1 1 1 1 1 1 1 1 1 1 1 1 1 1 1 1 1 1 1 1 1 1 1 1 1 1 1 1 1 1 1 1 1 1 1 1 1 1 1 1 1 1 1 1 1 1 1 1 1 1 1 1 1 1 1 1 1 1 1 1 1 1 1 1 1 1 1 1 1 1 1 1 1 1 1 1 1 1 1 1 1 1 1 1 1 1 1 1 1 1 1 1 1 1 1 1 1 1 1 1 1 1 1 1 1 1 1 1 1 1 1 1 1 1 1 1 1 1 1 1 1 1 1 1 1 1 1 1 1 1 1 1 1 1 1 1 1 1 1 1 1 1 1 1 1 1 1 1 1 1 1 1 1 1 1 1 1 1 1 1 1 1 1 1 1 1 1 1 1 1 1 1 1 1 1 1 1 1 1 1 1 1 1 1 1 1 1 1 1 1 1 1 1 1 1 1 1 1 1 1 1 1 1 1 1 1 1 1 1 1 1 1 1 1 1 1 1 1 1 1 1 1 1 1 1 1 1 1 1 1 1 1 1 1 1 1 1 1 1 1 1 1 1 1 1 1 1 1 1 1 1 1 1 1 1 1 1 1 1 1 1 1 1 1 1 1 1 1 1 1 1 1 1 1 1 1 1 1 1 1 1 1 1 1 1 1 1 1 1 1 1 1 1 1 1 1 1 1 1 1 1 1 1 1 1 1 1 1 1 1 1 1 1 1 1 1 1 1 1 1 1 1 1 1 1 1 1 1 1 1 1 1 1 1 1 1 1 1 1 1 1 1 1 1 
339 407
108 127
199 318
13 510
406 414
265 372
262 377
243 313
62 473
27 151
24 578
446 486
12 418
14 199
261 271
311 389
376 443
269 277
134 412
182 580
244 377
63 501
180 435
194 258
257 336
126 598
144 399
127 563
273 320
66 145
129 393
278 342
249 571
155 345
331 433
84 494
74 296
189 320
190 214
339 406
109 196
183 309
186 480
116 495
143 464
369 390
208 581
59 119
102 133
15 593
264 599
70 272
47 301
295 418
1 261
107 108
70 371
184 275
283 457
108 412
131 448
177 328
219 341
26 482
8 510
292 504
13 431
127 254
43 479
170 325
249 550
301 330
403 488
48 93
317 493
217 298
463 553
376 405
11 518
403 526
230 515
498 574
458 508
62 89
68 299
74 148
89 537
299 443
45 533
173 520
209 303
384 477
560 600
49 485
475 482
207 301
324 488
25 387
430 458
293 549
388 516
60 250
140 278
67 448
167 374
324 526
238 245
346 583
298 501
232 338
162 175
117 216
63 559
480 597
341 378
473 537
29 329
230 588
399 512
522 595
148 275
112 419
318 335
157 393
375 388
455 567
144 582
288 410
458 565
159 340
481 491
7 275
47 143
310 336
319 355
179 562
128 462
185 235
30 466
1 573
552 587
165 369
367 453
59 272
337 416
567 597
292 444
8 431
188 517
275 482
59 371
147 558
40 291
31 261
347 468
19 275
54 315
15 181
9 348
183 402
370 449
253 504
423 461
276 579
37 311
386 491
65 91
205 513
426 460
299 405
204 586
401 476
16 441
78 87
1 90
396 488
510 583
245 507
103 235
223 307
147 375
218 245
230 397
440 521
86 389
138 473
111 502
231 237
396 526
135 411
127 381
279 568
13 346
476 600
237 252
17 342
140 159
399 556
366 413
61 495
323 545
524 594
91 479
305 365
462 533
196 464
58 314
199 543
122 183
202 566
234 484
197 525
302 594
201 215
56 366
256 583
412 519
214 382
459 598
116 173
211 555
40 164
308 414
6 530
220 358
289 566
326 517
274 418
387 540
132 334
78 385
215 366
107 134
380 595
36 299
265 436
156 437
298 559
233 240
363 427
267 362
5 367
455 480
184 475
124 158
71 205
235 491
163 592
113 250
561 576
464 553
355 593
43 286
125 331
395 409
364 414
222 389
487 546
105 142
457 564
75 116
492 523
253 444
433 451
4 337
187 329
31 573
180 518
58 420
394 558
1 284
125 151
116 520
44 299
158 272
248 365
155 496
1 508
258 578
158 371
219 581
99 512
403 445
217 359
240 394
393 419
280 358
134 300
62 120
168 497
94 554
8 346
160 525
159 354
534 557
7 50
99 344
34 304
405 443
307 533
456 495
52 495
31 90
26 399
14 149
74 248
16 153
239 499
34 260
324 445
131 415
317 319
126 441
65 479
260 460
114 122
74 184
198 255
19 50
366 510
148 475
22 214
56 551
24 484
109 337
38 404
161 563
7 475
1 565
439 581
215 551
164 516
287 419
55 191
296 475
20 229
163 251
241 326
39 142
20 332
9 216
376 489
108 300
243 249
41 174
321 453
88 382
175 296
316 400
127 597
267 345
132 383
28 485
107 497
19 475
263 583
185 386
99 556
402 458
319 593
388 474
84 493
73 281
67 415
379 494
176 205
251 417
106 372
58 213
13 270
68 376
273 410
171 575
241 519
74 538
150 387
35 112
302 524
255 590
344 482
91 286
31 284
89 411
433 440
104 139
136 488
161 254
397 592
156 289
246 549
178 494
234 258
189 410
1 82
396 445
34 351
4 301
102 409
275 399
31 508
277 290
236 309
136 526
352 456
61 173
103 386
72 592
62 352
448 576
312 575
66 464
16 62
95 198
145 360
363 408
338 469
366 431
47 92
588 592
193 485
281 486
64 250
63 418
156 202
182 419
264 304
232 335
252 430
246 277
83 503
272 377
120 456
26 582
7 26
194 273
61 520
126 153
299 489
211 476
92 463
202 307
31 565
86 118
291 530
247 281
124 253
172 545
448 544
57 392
223 462
19 26
216 310
289 307
172 323
8 270
140 439
109 301
515 568
185 481
475 582
58 265
197 452
119 377
42 570
27 569
362 457
361 487
53 200
226 271
329 371
306 338
374 562
365 512
6 388
83 317
139 578
265 422
61 101
27 152
127 241
65 286
52 173
539 596
97 198
336 372
401 560
4 143
131 561
104 578
112 398
227 549
24 258
18 576
203 566
134 567
72 251
361 432
292 390
221 282
103 481
452 581
415 523
31 82
74 305
87 94
505 507
161 381
13 54
358 446
288 353
190 384
469 543
315 547
36 376
25 217
192 229
149 449
276 395
275 582
498 511
264 351
192 332
71 176
288 498
227 277
456 520
94 416
160 452
143 463
52 520
370 465
57 534
18 44
298 418
236 402
231 236
67 561
395 502
55 562
494 593
43 230
191 194
53 69
284 423
96 487
15 125
109 143
365 556
358 536
44 376
108 567
18 544
528 594
242 563
146 183
560 587
343 460
23 27
345 466
390 447
349 491
325 401
403 541
255 455
100 338
93 201
186 517
162 296
283 453
90 423
96 432
169 458
52 101
233 235
164 474
525 581
147 240
39 105
84 319
251 428
363 553
49 140
347 572
138 352
165 504
136 445
75 495
324 541
190 477
300 497
145 531
253 390
224 396
351 425
98 549
546 591
502 530
134 480
284 461
8 54
93 215
267 496
140 219
344 399
42 321
258 484
137 338
152 373
498 571
106 436
212 296
242 254
261 423
239 434
175 248
90 461
77 539
71 259
32 244
37 414
235 276
405 489
131 470
98 277
252 261
304 425
42 247
197 278
175 184
317 355
18 36
112 500
540 545
30 281
40 530
62 135
393 398
144 212
311 488
536 564
144 322
392 534
62 450
206 282
282 457
311 526
123 210
290 566
111 291
168 255
220 267
85 266
443 489
108 480
446 564
476 587
161 597
498 550
79 503
261 461
130 575
396 541
91 230
165 444
67 470
32 262
124 447
20 314
177 427
102 502
83 228
333 547
438 527
27 433
379 493
287 398
291 388
175 538
191 320
196 463
202 462
160 278
29 158
432 487
34 426
82 252
289 462
10 201
198 590
111 164
340 341
203 307
270 542
140 468
178 493
133 516
107 255
37 224
98 223
121 146
5 486
269 566
79 317
252 573
444 539
532 575
344 582
20 420
336 436
388 394
142 245
512 582
132 336
169 285
238 507
21 577
112 535
242 381
95 108
125 569
211 560
124 292
33 575
350 505
10 215
221 585
176 259
205 576
273 353
4 92
372 420
117 400
17 200
527 575
125 152
350 421
273 498
38 343
94 196
189 353
288 391
174 464
144 162
171 298
455 517
348 490
438 532
189 498
167 574
306 335
182 398
75 173
65 230
331 373
10 56
322 365
77 596
400 509
5 206
471 506
150 217
249 562
233 386
407 488
324 364
393 500
114 458
407 526
555 568
161 241
115 577
435 448
234 273
80 156
22 384
294 469
327 386
230 552
117 132
303 347
467 540
205 544
139 484
217 527
218 507
73 358
259 523
195 485
104 484
75 520
225 264
135 138
433 494
97 108
429 598
385 554
124 187
175 305
418 438
83 451
23 79
17 69
53 303
20 213
28 140
264 426
224 324
170 555
86 488
46 122
252 284
287 500
87 554
271 309
184 528
216 257
311 445
317 593
162 248
86 526
141 374
177 408
138 450
252 508
106 422
230 279
162 184
24 189
339 414
49 341
192 314
318 404
100 335
438 483
293 566
466 536
503 593
75 101
45 98
12 540
390 442
136 541
25 438
149 465
209 378
290 307
453 457
112 424
22 477
304 318
444 596
413 542
478 495
62 429
66 463
408 531
233 481
80 591
42 73
212 248
242 597
40 388
92 385
393 535
217 532
411 537
198 455
222 488
369 539
206 585
247 358
69 347
450 598
56 583
43 600
24 273
327 481
29 253
252 565
135 598
137 335
222 526
84 355
192 420
153 456
2 119
55 141
149 370
215 583
1 271
68 513
500 505
148 528
95 134
183 430
162 538
81 119
257 332
147 235
224 403
295 540
182 500
20 265
200 347
340 581
330 427
26 212
79 228
7 528
99 275
268 457
359 575
26 322
381 497
101 473
32 81
127 412
210 387
296 528
278 303
178 319
287 535
37 136
14 449
269 307
90 237
441 456
25 150
83 440
164 394
19 528
204 329
114 285
53 209
225 469
341 485
212 538
224 584
399 475
133 474
199 338
125 433
171 359
286 401
277 546
197 439
203 462
9 400
254 497
271 402
336 422
143 385
309 423
139 258
255 472
217 483
362 453
401 515
21 65
407 445
78 174
124 442
104 258
297 542
217 274
216 509
152 357
245 580
312 359
414 584
47 109
97 134
273 391
468 525
89 138
165 390
192 213
325 592
189 391
228 331
305 482
3 9
404 425
552 555
434 495
45 380
491 516
401 588
9 132
239 478
182 535
275 322
2 272
220 446
31 271
299 376
393 424
177 553
309 461
265 334
346 547
382 384
91 600
2 371
81 272
95 497
187 253
86 445
156 549
160 439
81 371
149 306
131 492
94 337
338 460
587 592
170 476
29 59
310 332
168 590
162 305
361 595
221 362
26 162
213 310
369 596
191 410
460 465
36 513
385 416
130 298
220 536
375 558
14 137
145 207
136 364
18 68
49 581
156 277
79 451
179 578
281 564
351 543
517 590
87 416
367 585
287 424
280 446
248 482
419 505
138 429
13 51
293 307
226 423
89 598
266 523
270 297
330 408
212 305
30 358
67 492
44 513
128 487
167 179
419 421
222 445
85 205
274 540
192 265
510 547
177 363
301 328
304 543
28 341
382 477
478 520
99 475
38 599
107 590
97 497
17 303
84 593
473 598
262 272
280 536
197 219
128 432
429 441
183 261
311 541
111 530
147 386
134 517
262 371
118 190
96 595
194 288
290 462
256 547
140 572
29 447
65 600
244 272
518 561
226 461
33 298
150 438
102 291
308 396
136 308
246 566
149 356
244 371
155 283
232 404
196 385
265 383
76 252
433 493
112 350
181 503
60 142
331 357
152 178
182 424
221 345
105 506
156 223
364 396
282 453
167 243
53 160
193 341
463 464
8 51
417 428
159 525
42 367
69 193
94 301
457 466
574 578
194 234
270 557
45 227
108 517
112 113
160 219
258 273
445 488
131 435
11 523
79 440
51 392
102 164
445 526
185 516
134 168
29 292
269 462
167 511
208 347
14 100
480 567
206 362
135 441
41 94
6 349
484 574
48 201
181 317
229 310
307 380
183 573
435 561
342 378
127 300
514 534
101 120
147 481
384 389
190 339
197 468
168 455
152 379
13 333
211 515
46 114
5 221
73 267
3 310
84 181
17 209
13 514
67 435
227 566
103 516
519 563
305 399
48 215
434 520
161 412
437 546
174 463
39 506
257 314
188 198
335 425
130 359
108 168
199 335
112 182
35 250
263 547
243 374
178 355
407 541
321 585
406 584
187 447
94 143
330 553
236 430
211 588
51 534
96 361
48 56
7 144
29 187
432 595
63 540
66 87
113 142
368 387
90 236
70 244
49 195
167 571
21 91
409 491
485 572
318 343
14 465
107 455
160 468
257 420
365 475
19 144
505 580
198 472
248 399
87 196
71 448
163 577
206 345
570 585
46 458
140 208
28 581
86 541
311 364
8 333
394 481
247 267
403 548
101 352
135 153
23 110
77 377
8 514
522 591
45 522
187 292
169 226
33 359
183 284
356 469
66 385
4 109
133 394
377 586
14 370
415 443
254 255
211 397
70 262
55 104
293 462
139 189
210 217
548 584
330 363
167 550
142 507
98 566
292 539
420 490
183 508
170 560
400 529
104 189
230 568
324 548
499 520
413 557
300 590
435 470
18 85
400 589
287 350
43 587
80 533
114 169
55 139
246 307
129 250
498 562
305 582
180 523
426 449
29 70
15 27
47 360
53 197
111 388
85 176
193 581
222 541
308 324
5 564
89 441
310 314
54 392
83 494
139 273
486 536
458 461
60 105
223 487
104 273
59 244
183 565
298 540
95 255
179 484
374 578
106 334
331 379
6 558
245 419
159 452
470 561
270 413
221 496
286 592
181 228
223 432
291 349
191 353
127 567
21 479
207 360
386 409
6 375
380 591
418 501
396 548
248 582
310 420
191 498
144 175
176 448
182 350
27 373
219 347
131 518
29 442
462 522
294 460
12 172
41 66
185 474
268 453
213 257
253 539
493 503
59 262
379 593
17 160
173 537
297 557
397 577
451 569
64 142
308 403
145 330
226 237
43 325
227 307
395 530
267 283
72 577
154 331
55 578
136 222
14 306
62 499
389 488
57 366
54 534
16 473
479 592
33 63
242 412
178 593
25 501
474 579
157 250
46 285
85 259
376 513
389 526
236 261
90 231
68 576
97 255
105 454
38 304
352 495
45 246
152 521
115 479
252 271
91 587
103 474
378 485
364 403
171 527
283 585
404 543
67 518
123 387
257 265
235 409
306 404
38 260
260 449
345 358
141 574
292 596
228 569
308 584
234 288
403 407
112 287
89 153
371 504
82 146
158 244
239 459
120 495
312 527
86 364
277 437
217 295
30 267
22 339
387 545
476 555
50 512
106 383
270 510
364 584
307 522
1 423
265 336
50 344
324 407
161 300
127 480
552 560
5 280
238 580
37 396
41 554
28 195
300 455
68 544
240 327
418 559
403 406
114 226
51 57
272 371
23 83
216 529
71 415
399 528
181 451
47 531
158 262
216 589
206 496
14 356
57 551
366 514
179 258
299 513
39 454
16 89
98 307
195 341
171 532
592 600
279 417
321 362
543 599
187 442
236 573
222 364
446 466
519 597
324 406
101 135
251 401
1 461
232 343
159 278
201 542
542 557
38 351
276 491
323 575
322 482
119 272
545 575
100 404
101 450
250 506
213 509
86 308
65 587
25 559
541 584
91 325
119 371
50 556
225 460
87 337
140 342
178 181
312 532
70 81
21 286
369 377
371 444
193 195
126 473
253 596
487 549
53 378
218 580
73 446
229 257
102 530
24 288
427 554
396 407
270 431
431 534
84 125
207 531
40 349
246 462
291 558
98 128
116 537
36 576
133 147
233 516
132 229
24 167
354 525
3 257
79 494
136 548
137 404
132 332
105 471
484 511
15 79
314 509
92 174
134 166
31 423
336 383
202 487
73 536
327 516
291 375
259 443
197 572
168 472
222 308
318 599
42 486
289 487
331 521
396 406
115 286
186 198
472 563
169 309
24 234
171 483
17 197
44 576
36 44
363 464
112 393
277 289
138 499
171 274
202 432
3 117
389 445
445 541
489 513
155 570
128 595
191 391
415 489
289 432
297 413
176 415
21 43
321 345
36 544
181 440
501 559
481 502
392 551
312 483
413 510
31 461
236 284
401 552
381 590
247 446
64 105
217 368
65 325
210 438
120 173
108 166
174 385
122 252
440 503
577 592
249 578
209 485
59 81
5 220
236 508
352 520
99 528
358 457
42 206
125 373
4 360
107 472
278 378
83 493
271 430
386 502
301 427
160 572
44 544
224 382
227 462
26 175
32 204
190 389
39 471
374 484
426 465
204 253
143 174
184 594
228 433
87 301
121 122
484 571
247 536
425 599
335 543
270 346
254 590
259 405
71 561
161 567
173 411
150 501
120 520
166 242
54 57
367 496
343 449
13 315
438 467
332 509
488 584
229 509
236 565
405 513
242 300
245 398
16 120
339 396
348 400
502 558
41 416
435 492
109 360
3 509
37 324
62 434
413 431
496 585
195 581
130 527
484 550
443 513
235 502
61 537
156 566
55 484
279 428
169 402
182 287
297 510
95 590
283 362
58 490
522 533
148 594
226 236
56 547
136 407
459 473
90 121
7 594
349 409
322 399
40 558
328 554
6 240
185 394
215 547
155 321
27 357
101 429
87 143
128 361
296 594
172 575
141 179
98 462
197 208
302 365
8 315
480 517
19 594
360 531
184 302
161 480
40 375
155 247
78 94
167 191
168 186
170 515
304 338
136 406
260 465
176 561
33 527
150 559
102 388
165 539
103 394
550 574
37 403
63 172
130 532
16 352
354 452
32 586
287 393
105 218
217 467
71 470
233 474
305 322
384 488
217 312
114 309
97 590
456 537
381 455
11 67
52 537
144 296
411 598
384 526
170 588
25 418
301 408
184 524
188 497
311 548
46 169
297 431
30 446
21 230
327 474
201 263
17 378
258 288
141 243
260 370
38 426
123 217
160 208
362 585
152 154
37 584
106 336
88 190
4 531
365 528
380 533
1 237
283 345
433 593
245 500
107 186
250 454
116 411
148 302
203 487
86 222
254 455
243 574
288 313
159 439
266 443
30 536
7 302
341 581
141 511
371 390
306 343
179 189
321 496
296 302
232 599
416 427
34 264
322 582
83 319
33 532
248 322
203 432
144 148
201 297
238 419
211 552
182 393
170 397
93 542
115 230
326 497
19 302
389 541
130 483
300 472
527 532
76 146
154 569
39 218
204 447
148 524
79 493
130 274
55 258
470 492
242 567
109 531
147 516
7 524
132 314
356 460
138 434
223 595
296 524
179 273
95 455
183 271
199 404
18 180
27 178
259 489
472 597
281 466
126 352
19 524
504 586
267 570
226 231
58 348
176 470
153 495
211 279
163 479
297 346
266 405
41 196
245 535
114 402
22 389
156 307
165 596
540 575
31 237
240 579
271 573
375 386
132 420
100 343
218 419
204 292
141 571
72 91
407 548
260 306
11 443
251 592
33 483
11 131
249 484
47 207
476 560
33 274
146 252
313 374
201 557
376 576
441 495
359 527
167 562
368 438
292 377
342 485
328 416
127 517
97 455
250 471
301 553
60 506
311 407
552 588
27 379
99 144
394 516
137 343
159 219
242 480
34 469
384 445
46 226
61 411
290 487
141 550
325 577
86 548
340 347
87 92
282 585
66 174
339 403
105 238
467 545
125 357
124 369
139 288
10 542
149 232
216 316
376 544
104 288
252 423
290 432
349 502
111 349
343 465
177 464
56 93
440 451
311 406
497 563
197 342
11 405
139 167
268 282
16 135
94 109
318 351
181 494
375 481
118 214
132 213
104 167
223 361
33 130
260 356
16 450
359 532
80 98
339 584
33 123
127 168
337 360
299 576
271 284
15 110
301 363
222 548
267 321
343 370
139 234
142 580
269 487
397 479
363 463
245 424
140 200
253 377
304 335
150 418
57 583
271 508
103 147
252 461
104 234
12 545
6 235
144 248
273 313
72 479
213 529
283 496
12 323
213 589
50 275
26 296
144 184
58 216
52 411
42 221
85 448
32 165
189 313
75 537
269 432
435 518
78 554
323 359
163 286
39 238
411 441
383 509
154 433
160 342
62 478
159 468
79 319
153 173
255 326
145 177
590 597
299 544
113 506
171 295
264 469
271 565
249 258
180 443
36 68
121 458
73 155
314 529
295 545
22 37
164 327
132 265
147 474
314 589
134 198
295 323
359 483
172 298
51 366
43 555
334 509
255 519
482 582
220 457
358 453
202 595
144 538
49 347
40 240
136 311
153 520
26 148
338 449
289 595
44 68
489 576
96 156
382 389
235 291
401 568
1 236
233 394
361 591
126 135
21 600
188 255
123 438
126 450
22 118
86 407
357 569
275 296
514 551
125 178
2 244
83 355
327 394
204 442
20 490
308 382
392 583
201 413
93 263
164 233
266 489
156 462
441 520
81 244
108 198
221 283
35 39
416 553
149 225
80 380
280 457
201 256
293 487
306 599
186 497
498 578
364 382
372 490
180 405
71 492
41 337
381 472
489 544
345 446
424 506
259 299
111 558
5 466
210 501
35 142
238 398
86 406
232 304
453 585
115 600
394 474
350 507
293 432
2 262
42 564
27 521
51 551
277 549
222 407
402 430
45 293
332 529
232 260
81 262
229 529
337 531
93 297
405 576
96 591
505 535
111 375
55 189
332 589
72 286
229 589
123 150
254 472
345 536
68 85
77 119
236 271
125 379
465 599
3 529
243 511
330 464
91 555
50 475
443 576
3 589
487 566
384 541
31 236
144 305
240 395
90 183
6 386
16 429
370 425
516 530
268 585
222 406
64 506
121 285
190 488
470 518
15 83
161 517
11 489
403 414
202 361
55 273
343 356
430 573
190 526
100 599
4 207
171 368
47 78
151 331
218 398
550 571
354 439
201 510
138 478
405 544
289 361
60 454
155 367
373 569
274 545
70 204
471 505
282 362
274 323
95 472
324 414
62 239
46 309
422 509
312 368
582 594
101 499
129 142
232 351
74 512
429 473
54 366
390 504
78 416
443 544
176 492
85 415
493 494
10 263
172 359
93 557
74 344
210 559
137 599
199 343
245 350
244 262
41 301
398 506
468 572
206 283
265 332
43 476
47 330
445 548
318 426
1 231
391 410
109 207
243 571
53 485
303 340
71 435
26 248
241 242
192 490
173 598
161 168
399 594
497 597
80 227
531 554
181 493
238 500
26 184
77 272
65 555
378 581
194 320
75 411
77 371
20 348
449 599
209 341
6 481
42 280
388 579
478 537
560 588
10 297
163 230
201 431
83 593
28 347
228 373
97 472
396 414
335 338
432 591
74 556
36 85
484 562
286 577
357 433
145 328
30 155
500 507
436 509
450 473
207 330
216 372
135 473
130 295
126 429
455 497
237 458
243 550
59 204
390 444
94 360
211 568
46 76
495 499
203 595
92 94
282 345
49 193
54 551
430 508
122 146
79 355
442 586
140 303
26 538
166 563
113 454
547 557
425 426
44 85
41 143
198 326
82 122
353 410
14 232
124 504
218 500
400 436
189 249
476 515
70 586
116 138
46 402
69 340
538 556
169 430
60 471
193 347
428 592
479 577
35 105
23 331
180 489
475 538
278 485
4 47
131 523
530 579
31 231
29 369
171 467
238 535
198 519
430 565
171 312
170 552
176 435
142 419
91 476
200 340
23 151
165 377
117 310
10 557
492 513
246 487
190 445
33 295
40 235
476 588
362 496
328 337
2 81
533 546
220 268
141 191
63 545
166 254
127 166
266 299
312 467
291 386
259 376
63 323
147 394
102 349
125 521
303 354
95 186
177 463
338 465
246 432
80 522
201 346
85 561
437 549
48 542
133 327
83 181
99 594
242 517
363 385
183 423
159 572
434 537
399 524
138 239
67 523
118 384
275 538
170 279
373 433
481 530
124 444
158 204
249 273
417 592
116 598
424 454
72 230
402 573
218 535
338 370
523 576
294 449
140 209
20 216
32 329
192 348
42 220
59 586
395 558
302 482
354 468
93 413
386 530
203 361
78 196
26 305
188 590
183 461
431 551
22 488
419 507
133 233
237 285
519 567
45 80
186 255
368 501
93 256
290 595
22 526
37 382
65 476
197 200
227 487
113 471
440 494
268 362
130 368
87 109
97 186
209 581
181 319
89 473
62 459
26 74
136 414
86 311
291 481
11 299
118 477
64 454
187 369
179 288
94 531
164 579
298 545
69 354
523 544
238 424
71 518
227 432
313 574
298 323
316 509
61 138
166 381
323 527
213 316
499 537
14 225
21 587
149 425
267 367
418 540
99 302
200 354
210 418
326 590
389 548
235 530
34 460
111 240
101 434
79 593
4 78
232 426
361 533
230 417
17 485
175 512
85 470
269 595
27 154
369 371
160 200
43 560
175 344
216 436
179 234
222 311
220 453
275 305
347 378
149 294
173 441
45 269
169 261
100 304
33 368
398 454
80 246
383 529
314 316
28 193
25 540
99 524
282 496
402 508
114 430
158 586
93 510
383 589
306 351
201 270
100 260
218 424
320 410
115 587
105 505
60 218
1 121
325 479
265 314
368 559
98 487
424 471
40 386
4 330
400 422
136 224
270 514
270 333
121 169
141 562
199 599
245 287
268 345
159 208
41 92
105 421
9 310
323 532
61 598
24 194
225 449
102 558
128 156
371 539
279 401
239 456
108 134
334 529
365 594
110 331
137 304
5 281
52 138
10 413
280 453
58 400
334 589
98 432
106 229
96 533
175 556
402 565
106 332
10 256
290 361
221 570
388 395
110 151
137 260
73 457
415 513
192 216
176 518
102 375
21 325
194 410
265 420
344 538
3 192
391 498
512 538
119 244
163 600
18 266
92 554
188 455
330 463
234 320
409 502
109 330
276 409
70 165
191 313
169 573
64 471
257 490
208 340
79 181
370 543
264 460
351 404
514 583
501 540
130 467
58 132
134 497
140 160
166 597
190 541
100 351
130 312
93 431
22 445
266 376
180 299
39 505
544 561
228 357
123 501
168 326
338 356
91 560
375 516
155 486
229 316
151 569
39 421
302 399
293 595
456 598
323 483
115 325
52 598
128 591
138 459
40 481
269 361
15 23
119 262
304 404
31 121
382 488
474 491
135 352
151 152
161 166
3 316
137 351
389 407
382 526
88 214
483 501
168 519
386 388
247 457
339 382
51 583
326 455
387 575
113 218
398 471
10 510
353 498
108 497
105 157
116 441
48 263
142 398
82 114
517 519
143 554
33 467
53 140
107 326
33 312
155 206
130 171
154 373
78 337
311 414
359 368
245 393
281 358
24 320
389 406
172 527
413 514
195 347
371 596
230 428
59 165
124 390
66 94
365 524
329 586
16 499
162 512
50 528
45 290
457 536
221 321
432 533
169 284
236 423
117 257
149 318
162 344
107 519
206 570
114 261
34 199
11 376
235 388
76 122
121 226
89 120
238 350
65 560
48 297
93 346
13 392
397 600
169 508
310 490
422 529
167 578
183 237
83 125
123 559
221 247
453 496
68 180
524 582
422 589
216 422
72 600
166 241
29 504
294 465
208 354
212 512
60 238
588 600
302 582
152 503
10 431
82 458
181 355
440 493
212 344
39 157
33 171
125 154
112 250
236 461
483 559
293 361
342 581
169 565
150 540
172 532
162 556
294 370
197 303
164 395
410 498
349 530
268 496
23 569
257 348
116 153
177 385
218 350
297 333
190 364
297 514
13 534
87 360
23 152
186 590
152 317
436 529
111 235
168 188
74 275
29 124
114 573
140 197
8 392
57 547
354 572
412 563
158 165
436 589
48 557
368 418
27 84
78 301
142 500
212 556
159 342
352 537
429 450
89 352
92 416
62 75
472 567
29 444
133 579
277 566
64 218
568 592
469 599
306 426
407 414
513 561
126 499
219 340
61 441
185 327
55 288
75 138
549 566
205 266
382 445
341 347
54 583
30 457
196 554
213 372
151 433
231 252
251 577
160 303
120 537
55 167
145 427
117 509
228 379
206 321
170 568
359 467
375 474
350 580
172 483
377 447
10 346
187 504
384 548
107 188
172 274
190 308
101 478
36 180
313 511
259 513
103 327
113 238
38 264
276 502
206 247
86 414
55 234
14 425
492 576
550 562
22 541
185 233
8 534
93 270
180 376
380 522
367 570
320 353
225 465
314 372
301 464
106 314
358 585
199 304
353 391
135 450
85 492
320 498
246 595
197 209
127 198
143 416
44 180
294 306
78 143
73 268
82 285
47 177
94 207
100 426
331 503
199 260
75 598
300 326
142 535
447 504
310 348
356 449
14 294
52 441
114 284
472 480
223 591
9 257
286 479
392 547
248 296
103 233
225 370
149 543
292 371
114 508
267 486
191 249
222 414
194 353
234 410
106 420
492 544
288 374
243 562
518 523
250 505
53 341
300 519
194 498
102 240
187 444
61 153
137 426
84 110
6 516
32 158
181 593
250 421
17 140
241 563
35 506
9 117
134 255
313 571
156 487
160 209
79 125
258 320
385 531
86 224
219 354
43 515
431 583
357 373
42 466
56 201
186 455
114 565
279 592
74 475
87 531
156 432
476 552
247 268
5 358
199 351
188 472
105 129
535 580
227 595
214 384
332 372
455 590
229 372
152 228
16 434
294 356
23 433
111 386
38 469
20 400
316 529
34 149
145 408
123 418
313 550
43 588
56 215
139 194
18 205
108 255
241 254
316 589
253 272
66 554
46 430
3 372
349 388
110 569
104 194
435 523
222 224
500 580
10 270
253 371
330 385
163 587
459 499
270 315
372 400
552 568
140 378
48 413
182 250
121 309
85 435
277 307
64 238
106 213
24 410
246 361
384 407
110 152
52 153
167 484
61 62
366 392
70 329
43 72
142 424
92 196
50 144
278 341
451 521
48 256
62 126
225 306
154 357
324 396
336 420
20 132
304 343
326 472
129 506
183 236
1 183
249 288
89 135
9 509
73 453
238 287
118 339
315 542
196 416
528 582
13 57
321 570
89 450
214 477
25 172
22 364
236 237
43 397
39 129
213 436
101 239
184 365
384 406
128 533
437 566
3 20
352 411
446 536
228 521
98 595
15 331
57 93
91 515
416 464
111 481
2 204
76 114
382 541
29 32
460 543
41 109
81 204
491 579
175 275
29 77
15 151
88 384
204 369
557 583
366 534
415 576
14 318
135 429
131 443
155 221
106 265
126 434
120 411
314 436
52 62
143 196
163 325
320 391
408 427
412 597
266 513
241 381
227 361
218 287
91 588
152 451
271 423
29 390
48 510
22 308
53 581
484 578
247 453
59 329
225 356
32 253
220 282
133 395
8 57
148 365
78 92
377 442
139 320
202 591
291 516
121 402
157 506
397 587
240 491
7 365
10 54
273 374
104 320
67 443
31 183
171 210
67 131
289 591
45 203
166 412
415 544
296 365
30 268
72 587
76 458
192 400
194 391
189 374
190 222
86 136
145 553
271 461
419 580
6 474
19 365
358 362
47 328
88 477
305 538
478 598
466 585
161 198
75 441
65 515
91 397
470 523
167 258
131 405
280 282
421 506
303 525
411 473
467 575
238 393
154 178
17 341
375 394
46 261
371 377
515 592
48 431
333 542
345 457
302 322
4 177
332 436
65 588
98 361
493 593
229 436
11 513
110 433
2 586
183 231
335 404
233 327
207 328
278 581
66 416
81 586
67 405
356 465
221 367
145 363
497 567
152 440
248 538
350 419
158 329
45 546
155 564
3 436
216 334
35 454
12 575
65 72
187 390
102 235
381 519
516 558
72 325
85 518
241 597
254 326
277 462
18 176
185 579
283 570
218 393
164 185
154 379
32 59
175 475
94 330
132 490
480 497
356 370
297 315
199 426
109 177
89 429
234 353
69 525
65 397
331 451
21 555
96 98
82 169
347 485
234 498
502 516
237 309
254 519
142 350
210 540
276 291
46 573
213 422
258 410
153 537
80 293
75 153
92 337
323 368
136 396
295 575
217 387
200 525
434 598
325 600
103 579
162 275
150 172
262 586
76 285
169 271
30 453
95 326
190 548
428 577
134 590
14 543
101 459
48 346
401 417
159 200
282 283
244 586
40 516
46 90
441 537
301 463
53 195
115 555
587 600
201 333
314 422
351 599
129 454
201 514
324 403
509 529
212 275
160 197
462 546
95 519
32 447
509 589
361 380
174 554
216 383
223 533
172 295
403 584
186 472
18 259
248 305
220 585
16 478
127 134
319 331
304 599
24 353
108 590
291 474
60 505
5 267
117 529
206 367
143 337
324 584
28 49
24 498
180 513
155 280
117 589
417 577
60 421
390 539
35 471
97 326
259 576
142 182
165 272
560 568
17 581
331 440
235 349
77 244
260 425
203 591
499 598
165 371
46 284
283 321
395 481
563 597
141 578
472 517
303 452
32 292
237 402
87 207
46 508
396 403
280 585
166 300
92 301
105 245
97 519
96 380
334 372
42 281
130 210
307 546
260 294
131 489
22 222
281 446
408 553
77 262
102 386
157 454
332 422
229 422
41 360
259 544
66 196
514 547
132 348
396 584
440 593
82 226
43 163
46 565
409 530
389 414
323 467
274 575
564 585
3 422
281 536
67 489
162 475
285 458
21 476
127 497
139 410
48 270
251 479
481 558
421 454
129 471
104 410
190 407
32 187
126 478
476 568
315 557
134 455
4 328
71 523
156 595
95 188
33 210
124 539
113 505
69 452
318 469
197 378
51 547
154 521
204 504
430 461
143 301
240 276
39 245
2 165
92 143
358 496
60 157
113 421
234 391
118 389
68 266
81 165
114 271
212 475
386 558
46 82
27 503
6 394
437 462
172 368
200 452
555 592
136 324
209 347
167 189
190 406
401 428
50 594
74 528
257 400
390 596
115 476
496 570
151 373
346 542
416 463
311 396
196 337
15 569
102 481
90 252
147 327
267 564
288 574
155 220
108 455
455 472
507 580
290 591
109 328
357 379
179 194
15 152
40 474
49 340
340 354
208 525
211 417
153 411
160 378
70 158
388 491
167 273
32 70
174 416
16 239
350 398
27 317
97 188
425 469
429 499
239 495
96 227
9 529
91 163
235 558
434 441
204 444
185 395
22 548
268 283
202 533
9 589
157 471
454 506
34 449
38 460
147 233
424 505
205 259
289 533
22 86
510 542
136 403
17 195
18 71
235 375
176 523
35 218
24 391
533 549
119 204
166 567
132 216
269 591
383 436
12 298
48 54
149 338
368 540
142 287
13 48
41 531
133 185
103 395
230 401
335 343
260 318
343 425
43 552
421 471
256 542
156 361
113 157
62 456
50 302
232 264
32 442
361 522
63 575
124 596
258 353
136 584
471 507
251 286
152 494
450 499
362 570
333 557
36 266
258 498
266 576
220 362
135 499
334 436
310 400
313 562
214 339
64 505
69 278
196 301
159 303
233 579
59 158
295 298
64 421
373 379
486 585
13 366
50 524
122 458
65 163
54 547
43 279
73 282
418 545
44 266
286 600
327 579
221 486
10 51
77 81
267 280
200 278
172 467
402 423
459 478
93 333
7 99
80 269
23 373
172 312
78 109
126 239
427 531
120 138
93 514
76 169
387 527
345 453
179 320
49 354
315 413
129 218
513 518
266 544
8 48
280 362
328 360
34 137
216 336
322 538
141 484
350 500
166 480
19 99
272 586
264 449
173 473
96 522
66 337
398 505
131 299
426 543
86 396
321 367
25 545
291 394
5 446
463 554
112 142
355 569
398 421
25 323
325 587
404 599
276 530
402 461
479 600
352 598
550 578
69 159
298 575
293 591
119 586
11 576
15 433
47 427
91 552
45 437
22 407
220 345
556 594
263 542
70 253
8 366
301 385
5 536
247 282
82 309
21 560
67 299
273 574
311 324
27 228
232 469
13 551
211 428
120 598
142 393
161 497
88 339
164 491
387 532
125 503
222 396
159 209
189 574
111 516
51 93
208 452
219 525
11 44
191 374
239 520
357 521
87 330
435 443
28 340
506 507
174 196
64 157
6 147
348 509
243 578
140 485
22 406
12 359
91 279
382 548
411 450
207 427
213 334
331 494
466 496
350 535
11 544
315 510
157 218
241 412
280 345
501 545
304 351
123 540
431 547
568 577
35 238
115 560
201 315
117 192
282 570
163 555
127 255
89 499
184 482
422 436
60 129
38 199
138 456
206 486
10 333
317 331
122 285
139 353
16 459
319 569
125 317
175 528
497 517
439 525
10 514
274 298
34 100
104 353
139 498
384 414
66 301
121 430
311 403
203 533
260 543
104 498
483 540
383 422
193 340
8 551
65 552
42 358
314 334
342 347
473 499
295 359
59 253
387 483
432 522
96 246
333 413
74 144
429 434
316 372
141 258
76 226
116 473
258 391
464 554
349 558
190 311
134 472
311 584
99 365
334 422
117 316
37 190
11 36
328 531
80 290
82 402
169 423
303 439
315 431
151 357
45 289
148 482
204 390
149 335
65 279
27 451
349 375
7 482
47 408
373 521
40 394
129 238
73 585
180 576
296 482
101 126
213 383
45 202
110 373
55 194
29 539
34 465
19 482
66 143
144 512
68 205
28 354
256 263
12 63
283 367
350 424
108 472
144 344
169 461
128 380
355 433
307 437
171 387
135 434
2 329
30 282
245 250
288 511
208 278
86 324
113 129
126 459
94 177
81 329
442 447
577 600
397 555
152 493
332 334
207 408
282 321
229 334
335 599
54 93
34 370
314 383
312 387
72 555
428 479
158 253
500 535
276 388
333 510
180 544
235 240
382 407
279 577
70 447
150 545
346 557
131 376
159 160
482 538
3 334
150 323
69 439
256 297
242 497
480 590
233 395
147 579
193 354
220 496
452 525
247 585
146 458
290 533
367 486
144 556
105 507
494 569
222 324
327 395
200 439
219 452
315 346
46 271
18 448
246 591
63 298
360 427
111 474
407 584
382 406
217 438
27 440
157 238
567 590
265 490
14 338
274 359
352 441
163 476
226 252
411 429
125 228
67 376
9 192
487 595
86 403
225 232
61 473
419 500
288 571
262 329
453 570
179 410
119 165
417 479
70 292
121 261
454 471
184 399
162 528
510 557
319 433
264 465
78 360
280 496
244 329
120 441
230 592
23 357
100 264
187 539
151 178
439 452
333 431
174 337
269 533
86 584
134 186
139 391
36 205
55 320
41 207
332 383
256 557
229 383
4 427
29 596
104 391
366 551
47 553
59 447
241 300
343 543
351 426
394 579
212 528
222 403
264 370
288 550
474 502
84 331
268 570
39 507
338 425
34 306
173 352
9 316
137 264
128 227
3 383
114 423
521 593
306 469
324 382
447 539
318 460
44 205
84 151
316 436
395 516
243 484
227 591
155 466
263 297
148 399
304 426
64 129
286 587
237 430
70 187
118 488
38 149
161 255
188 326
331 493
456 473
52 473
89 434
435 489
214 389
7 399
103 185
108 186
222 584
69 219
98 156
61 89
118 526
151 379
419 535
121 573
412 567
207 553
296 399
109 427
164 276
133 491
170 417
59 292
57 201
230 251
303 468
114 461
43 170
19 399
47 363
146 285
200 219
43 568
189 243
188 519
22 311
465 469
277 487
116 120
48 51
184 582
397 476
124 377
125 451
270 392
72 476
479 587
152 319
360 408
273 511
120 153
333 346
446 457
219 278
57 215
93 315
321 486
159 197
277 432
66 92
30 585
425 460
145 464
76 309
100 469
40 147
189 511
34 356
158 447
174 301
346 413
347 581
68 176
293 533
363 554
263 557
127 590
63 359
16 75
187 596
207 363
26 512
73 362
265 348
98 591
264 306
26 344
132 400
326 519
23 178
166 517
52 89
515 577
286 325
141 189
59 187
83 110
130 387
553 554
253 262
122 169
53 347
223 380
137 469
268 321
78 531
148 582
412 480
153 598
4 408
195 340
94 328
475 512
21 515
41 47
128 522
69 468
270 534
167 288
7 582
88 389
467 527
121 284
18 415
102 516
296 582
447 596
169 237
158 292
116 352
429 478
205 448
194 313
121 508
42 267
117 372
273 571
200 468
58 310
419 424
141 273
19 582
251 600
370 404
449 469
243 258
70 442
91 170
21 588
441 598
189 571
26 556
208 439
91 568
56 542
198 242
241 567
60 245
213 336
125 440
71 443
71 131
4 41
215 542
166 168
23 379
110 357
247 362
197 485
167 234
256 413
115 515
109 408
275 512
539 586
5 155
33 387
68 259
317 569
470 489
249 320
11 68
275 344
346 510
12 527
121 565
21 72
475 556
59 70
90 146
14 335
48 333
264 356
85 523
486 496
48 514
298 359
190 414
118 445
73 345
76 402
221 564
273 550
503 569
163 560
237 261
61 120
92 109
147 395
448 561
10 315
13 583
206 221
467 532
278 347
389 396
533 566
362 367
189 550
450 478
115 588
314 336
171 217
135 478
240 409
158 187
36 176
21 397
348 529
242 255
316 422
12 33
173 450
395 474
360 553
348 589
420 509
562 574
374 410
80 203
170 428
295 527
160 485
62 116
275 556
123 172
136 382
71 405
151 521
44 176
65 170
111 394
74 594
329 447
59 442
65 568
232 460
241 480
106 490
127 455
195 354
534 551
12 532
223 227
128 246
346 431
115 397
577 587
247 345
179 353
283 486
224 384
413 534
340 525
3 58
75 473
190 224
256 510
41 78
122 226
176 443
113 245
179 498
471 580
159 378
445 584
4 553
52 120
467 483
237 573
8 583
61 352
394 395
191 574
250 507
55 410
335 351
18 561
360 363
263 413
208 219
267 466
437 487
297 392
363 416
538 594
563 567
178 331
36 259
295 532
16 126
77 204
80 546
27 494
332 336
199 264
229 336
448 470
272 329
1 252
110 178
397 560
526 541
41 330
79 110
221 280
206 564
114 237
451 503
72 560
3 336
408 464
35 505
15 373
246 533
202 380
12 483
109 553
238 250
9 372
294 425
44 259
224 477
12 274
359 387
289 380
30 362
4 363
35 421
337 427
88 118
102 474
74 302
152 355
87 177
119 329
37 88
438 501
158 442
404 426
256 431
53 193
176 405
205 415
2 158
235 386
336 490
117 436
75 89
116 135
17 347
344 512
161 590
52 352
131 513
81 158
297 534
219 439
414 477
133 276
282 367
116 450
186 326
228 503
89 478
285 309
399 482
317 433
210 545
341 354
507 535
45 549
237 284
153 441
210 323
295 483
140 341
334 383
74 524
110 379
386 481
223 522
274 527
172 210
208 468
23 521
263 510
101 456
237 508
313 578
109 363
218 250
9 20
49 525
186 519
473 478
555 577
135 239
303 572
146 169
18 470
68 71
338 543
67 513
45 277
144 275
73 496
325 555
506 580
84 569
12 130
31 252
260 338
477 488
228 317
227 533
129 505
173 429
106 348
12 123
64 245
216 229
344 556
477 526
199 469
11 85
512 556
165 244
216 332
170 211
84 152
281 457
345 585
129 421
77 586
169 236
155 281
409 558
30 345
237 565
118 541
56 263
22 414
411 499
571 574
235 481
215 263
194 249
112 506
149 404
438 559
217 501
103 111
29 377
377 504
185 491
168 242
82 430
35 157
46 423
274 532
206 280
551 583
256 346
240 502
130 217
311 382
263 431
71 489
42 446
234 313
225 425
511 574
165 262
202 227
177 554
340 452
462 549
14 38
367 564
56 297
156 591
69 572
279 479
247 496
337 408
179 391
45 223
285 402
58 257
389 403
366 583
184 212
249 410
103 491
215 297
331 355
184 322
225 294
145 463
42 536
46 461
61 135
111 147
99 482
355 373
200 572
205 561
61 450
96 293
98 533
107 242
243 273
329 442
446 453
276 349
157 505
171 438
444 586
223 246
58 117
22 224
161 455
389 584
79 83
62 495
92 360
175 594
336 348
157 421
75 120
36 71
33 217
152 593
78 207
377 444
537 598
2 253
274 483
350 393
186 188
81 253
255 563
312 438
32 369
8 13
125 494
129 157
251 587
9 436
524 538
63 527
294 318
20 310
307 549
217 559
421 505
387 467
148 212
24 313
122 309
277 595
384 396
204 539
374 498
148 322
335 426
242 590
306 460
302 538
89 239
44 71
211 401
328 330
6 327
140 581
56 557
7 212
549 595
146 226
144 475
429 459
203 380
7 322
187 377
117 422
38 449
116 429
106 216
263 346
176 489
215 557
455 519
296 322
214 488
412 517
393 506
400 420
52 135
66 109
21 163
47 145
19 212
214 526
52 450
19 322
27 493
219 468
325 476
428 600
288 562
513 523
388 409
169 231
319 373
143 360
17 193
202 522
110 521
87 328
49 452
406 477
151 154
256 270
105 580
118 364
206 220
268 367
55 353
289 522
84 433
6 233
28 525
127 472
75 352
58 509
55 498
114 236
63 532
175 302
362 486
191 243
205 470
163 515
287 506
244 253
349 386
86 382
48 315
82 261
100 460
279 286
115 163
152 181
439 468
189 191
450 459
135 459
251 325
382 414
3 106
69 208
337 553
434 473
298 527
321 564
586 596
147 185
220 283
30 496
191 511
26 275
2 59
163 588
94 427
417 600
175 524
15 357
148 162
200 208
193 525
102 394
358 570
369 586
37 214
118 308
365 482
122 402
137 460
7 162
354 378
562 571
302 305
260 335
331 593
38 137
399 582
375 579
313 484
448 492
177 416
368 545
225 318
39 580
277 361
62 173
222 382
330 554
88 488
276 558
51 201
92 531
522 546
121 271
316 334
204 596
88 526
19 162
60 507
77 165
345 362
63 483
182 506
138 495
5 457
255 381
99 399
485 581
379 569
63 274
280 283
192 310
337 363
290 380
449 460
411 434
276 375
241 517
203 227
61 429
334 336
267 281
22 136
163 397
263 270
420 529
82 573
298 532
162 594
51 215
349 481
242 455
62 520
228 451
216 314
420 589
178 569
112 454
401 592
2 447
191 571
71 299
565 573
202 246
81 447
21 552
308 384
35 129
23 154
397 515
196 360
82 90
208 572
408 463
294 543
291 327
51 56
214 445
49 278
212 594
17 28
140 195
72 515
534 583
9 422
56 413
154 503
141 288
216 420
364 384
43 115
286 555
143 531
62 101
18 492
374 391
269 380
215 413
130 438
234 249
56 256
68 448
380 546
63 130
141 167
397 588
80 437
127 186
26 50
282 486
46 237
191 550
185 276
452 468
215 256
27 319
63 123
114 231
21 279
2 292
164 409
72 588
115 552
265 400
474 530
38 100
298 483
316 383
52 429
89 459
81 292
356 425
437 595
12 295
273 562
94 408
201 392
303 342
258 313
217 418
141 234
15 178
99 582
113 507
308 477
154 317
479 555
189 562
26 475
418 575
162 302
262 447
249 353
28 452
377 390
82 284
14 404
315 333
315 514
103 276
231 458
249 498
233 491
155 358
55 391
149 343
198 563
228 440
244 447
255 597
125 493
82 508
49 159
197 341
364 477
75 135
477 541
384 403
370 599
355 357
203 522
33 438
115 279
76 430
176 299
283 564
130 150
327 491
75 450
119 158
100 199
72 397
146 309
468 485
528 538
388 502
16 52
212 302
134 326
25 575
162 524
54 201
131 576
472 497
138 173
240 291
123 545
393 454
16 456
325 560
112 471
88 445
56 510
2 187
24 249
123 323
142 250
81 187
1 46
365 399
193 452
215 510
262 292
384 584
201 534
82 565
78 330
15 379
91 115
96 269
281 453
38 465
50 365
225 543
198 254
161 472
134 519
4 145
177 196
230 577
54 215
244 292
69 342
137 199
483 545
145 385
160 341
330 416
212 524
293 380
239 537
20 257
224 339
138 520
6 102
18 435
156 533
275 475
209 340
67 576
379 433
424 507
36 448
287 454
108 326
131 544
33 150
323 387
200 342
34 232
85 443
85 131
80 289
66 360
196 531
305 512
38 370
54 56
32 504
47 464
305 344
511 571
178 433
40 327
102 147
340 439
20 117
173 499
319 357
454 505
216 265
44 448
501 575
108 519
109 145
56 431
80 202
2 70
466 570
237 271
8 10
213 229
270 366
215 431
286 476
213 332
67 544
211 592
41 177
219 572
118 222
12 368
94 553
64 507
110 154
231 285
146 402
457 585
105 419
65 115
207 464
31 46
511 550
40 233
28 278
126 456
333 514
248 512
203 246
182 454
487 591
6 579
375 395
71 376
305 556
365 582
32 124
290 522
453 486
248 344
250 580
139 313
526 548
11 180
190 396
199 460
42 155
104 313
85 405
128 293
205 492
13 547
198 381
154 228
32 444
353 374
68 415
393 471
428 587
221 466
314 332
439 572
159 485
214 541
435 513
2 442
274 295
359 438
481 516
5 268
295 368
81 442
345 496
197 581
398 507
1 146
195 525
76 261
20 509
119 253
134 188
94 363
193 278
317 373
448 518
125 319
357 503
268 486
348 372
209 354
38 306
270 551
386 516
49 53
45 566
211 251
124 272
248 556
249 391
318 449
23 84
287 471
269 522
372 509
124 371
164 502
39 419
171 501
56 346
117 334
75 429
28 159
192 257
352 473
257 310
355 379
49 439
101 116
161 186
166 198
215 346
417 587
568 600
96 290
411 478
292 586
90 122
112 218
8 547
312 501
27 355
34 225
160 581
108 188
471 500
114 121
66 531
46 236
120 473
116 499
344 475
242 472
176 376
262 442
150 575
423 458
144 528
37 384
235 516
170 401
496 564
15 521
229 332
16 61
118 548
244 442
92 207
77 329
76 573
433 569
95 242
88 541
107 161
12 467
267 358
3 229
182 471
58 529
425 449
12 312
3 332
38 356
100 149
154 451
220 570
31 146
58 589
36 415
172 387
18 518
205 435
106 400
70 369
198 597
168 563
133 409
385 427
147 491
206 466
316 336
243 288
93 392
177 337
462 566
246 380
285 430
76 90
373 503
149 599
87 427
239 411
341 525
319 379
68 561
517 563
171 559
5 453
452 572
253 586
44 415
117 383
167 194
208 342
340 468
137 149
295 467
37 477
274 368
233 276
519 590
35 245
295 312
360 464
106 132
293 522
471 535
73 283
470 513
291 579
63 295
280 570
451 494
312 559
204 377
351 469
83 331
214 364
413 551
192 509
97 242
143 207
168 254
12 171
49 219
107 563
297 366
83 151
272 447
56 270
190 324
25 298
14 343
362 564
155 267
304 469
173 434
93 534
215 270
279 600
320 374
76 284
307 566
85 489
228 494
41 328
394 491
2 29
564 570
286 560
356 543
59 369
525 572
21 170
4 464
76 508
434 450
72 163
21 568
61 499
227 380
154 440
119 447
336 400
195 452
546 549
45 307
121 423
174 360
22 396
107 254
214 308
9 334
198 241
247 283
348 436
43 417
220 321
57 542
163 552
386 474
46 231
148 175
272 292
183 252
177 301
223 293
99 212
129 245
213 314
194 374
28 53
99 322
13 93
27 593
118 407
40 102
32 77
380 437
7 175
112 238
10 392
76 565
84 373
220 247
479 560
68 470
190 403
160 195
28 439
297 551
376 448
115 170
355 521
385 408
240 530
109 464
36 561
115 568
45 128
6 395
121 461
346 514
366 547
105 398
88 364
19 175
49 468
119 292
103 133
32 390
167 320
87 408
367 466
168 381
139 249
213 420
232 449
358 367
339 384
325 515
163 279
280 321
104 249
118 406
502 579
460 599
251 555
456 499
130 501
506 535
190 584
52 499
44 561
536 585
235 474
260 404
125 355
274 467
182 218
76 82
98 380
274 312
158 369
446 585
193 439
122 430
63 368
224 389
325 588
196 207
8 93
10 534
342 354
314 420
40 579
29 119
510 514
205 518
26 528
250 419
9 383
47 463
101 495
107 381
255 412
88 308
330 337
111 327
157 245
318 465
299 448
341 452
89 126
116 434
392 542
119 187
91 417
128 269
39 398
587 588
317 357
409 481
99 162
339 477
219 342
27 181
282 564
256 333
319 521
256 514
475 528
33 501
169 183
349 516
25 359
397 552
69 200
308 339
195 278
542 551
301 554
133 502
72 552
357 451
318 370
165 204
325 397
79 331
50 99
82 271
259 266
487 533
229 314
36 470
207 463
300 563
60 580
191 562
111 233
28 219
174 531
79 151
285 573
354 485
294 338
171 418
288 578
130 559
486 570
67 68
17 49
246 522
30 283
105 500
90 114
3 314
322 512
168 597
425 465
275 528
322 344
298 368
518 576
221 281
120 352
44 470
312 418
515 600
72 279
385 553
332 420
150 298
229 420
43 428
382 396
29 272
517 597
164 291
87 553
29 371
34 425
22 324
65 417
92 330
321 466
193 219
71 513
3 420
45 462
348 422
284 458
451 493
15 154
568 587
95 97
532 559
98 227
147 276
272 442
213 265
149 304
438 540
291 395
281 282
202 293
33 559
30 42
34 294
518 544
172 217
107 597
263 333
149 260
289 293
63 467
442 504
322 556
263 514
90 458
63 312
527 559
96 203
80 549
237 423
329 369
117 336
251 476
85 299
39 500
376 415
170 592
240 388
24 55
230 479
357 440
391 574
66 207
373 451
361 546
25 63
125 593
119 442
227 522
61 434
179 313
411 459
105 535
28 468
70 504
435 576
228 493
477 548
122 261
101 173
153 473
480 519
87 363
182 238
113 580
14 599
80 277
78 177
165 586
42 457
405 448
285 508
22 403
340 572
261 458
20 529
39 64
214 222
257 509
370 426
472 590
155 446
276 386
1 31
20 589
494 521
143 330
237 461
58 192
343 404
16 116
57 263
359 501
168 241
225 338
46 121
248 275
53 340
128 290
404 469
372 529
441 473
101 520
270 583
3 213
443 448
145 174
372 589
91 428
185 409
63 171
435 544
149 351
193 468
457 496
22 584
442 444
300 381
187 272
264 425
173 478
534 547
206 281
155 536
453 564
114 183
245 506
151 503
187 371
285 565
121 237
70 124
236 252
75 499
96 546
176 513
299 415
353 574
377 539
217 540
94 145
170 251
416 554
57 297
317 379
386 394
70 444
184 296
298 467
323 438
39 535
178 373
234 374
572 581
140 347
210 575
298 312
52 434
10 57
511 562
264 294
349 474
318 356
301 416
337 464
360 463
103 409
50 482
98 522
122 573
58 316
107 241
80 223
255 300
59 504
136 190
306 449
84 357
284 285
167 410
232 465
83 569
424 580
125 181
277 591
373 440
77 158
279 587
229 265
150 359
268 564
166 497
154 494
344 528
378 525
151 317
512 528
7 19
549 591
273 578
276 481
83 152
146 430
105 424
9 58
223 269
90 285
6 103
3 265
495 520
189 578
118 311
352 450
73 570
307 462
88 222
227 246
278 340
232 370
68 492
235 394
359 559
198 412
40 395
43 211
310 509
65 428
148 296
305 475
376 561
230 286
4 463
491 502
120 135
552 592
49 572
286 515
283 466
26 144
7 296
67 85
250 398
120 450
57 557
74 365
59 124
64 580
130 418
261 285
34 318
470 576
159 341
388 530
294 335
482 512
214 548
401 577
24 374
59 444
53 354
127 326
19 296
192 529
410 574
9 336
196 330
195 439
100 449
132 310
429 456
192 589
286 588
281 585
413 583
300 597
69 303
122 284
288 484
381 563
260 343
27 125
158 504
47 87
228 319
109 463
279 325
39 424
468 581
201 366
479 515
432 546
248 475
48 392
35 507
127 519
377 596
247 570
122 508
95 161
156 380
23 503
7 148
116 478
203 293
200 303
358 486
470 544
398 580
137 449
11 266
37 339
382 403
299 561
555 600
163 170
98 246
33 418
85 376
254 563
19 148
163 568
482 556
405 415
479 588
351 460
6 185
292 329
5 282
47 385
268 280
286 397
220 367
84 178
122 565
173 239
420 436
232 306
450 456
428 555
15 84
463 531
251 560
91 211
41 427
335 469
135 456
23 317
382 584
73 321
60 419
376 470
36 492
392 557
239 598
68 435
111 579
304 460
278 354
48 534
78 328
158 444
264 318
102 327
76 271
88 548
255 567
231 309
73 247
97 161
297 583
133 291
95 563
320 574
77 253
100 137
250 500
201 551
172 438
50 399
207 385
17 340
151 228
129 507
44 492
280 367
317 521
418 527
66 78
141 194
69 209
225 335
83 433
146 261
209 525
341 439
185 502
308 389
223 290
49 208
195 219
383 420
179 249
267 446
503 521
489 561
84 379
256 315
417 555
79 569
181 331
174 207
184 248
378 452
16 495
478 499
200 209
140 193
42 268
529 589
221 358
102 233
214 407
364 389
253 329
474 558
194 574
149 426
515 587
79 152
133 164
352 429
25 527
75 434
247 321
95 254
14 304
309 458
232 356
202 269
505 506
245 454
299 470
103 502
70 77
66 330
127 188
65 211
267 536
334 420
55 313
437 591
159 581
290 293
156 227
14 260
153 352
61 478
97 563
188 242
397 568
112 505
57 413
164 530
514 542
121 236
72 170
120 429
105 350
329 504
72 568
34 543
28 572
214 406
112 421
418 532
25 33
255 480
144 594
70 390
391 511
57 256
522 549
180 266
250 535
113 419
357 494
30 570
184 538
12 210
148 248
146 573
198 300
426 599
405 561
368 575
224 488
546 566
254 381
211 577
148 184
157 507
359 418
7 248
464 531
105 113
231 402
542 583
36 435
50 582
154 493
41 408
273 484
224 526
116 239
7 184
1 122
51 542
25 532
446 496
94 464
97 254
195 468
306 465
62 537
269 293
189 484
375 491
178 357
501 527
349 394
19 248
89 456
443 561
414 488
151 451
193 572
325 552
44 435
258 374
316 332
17 354
110 503
19 184
497 590
14 351
414 526
107 127
210 298
233 409
82 423
400 490
421 507
141 320
167 353
166 255
58 372
340 342
456 478
126 495
88 407
226 458
52 478
263 315
168 412
577 588
428 476
23 228
175 365
59 77
20 192
167 498
329 444
39 350
434 499
327 409
353 511
95 381
306 370
418 483
148 538
161 326
21 115
99 175
391 571
71 576
281 362
38 232
338 404
57 510
7 538
5 585
206 358
208 303
56 333
105 182
56 514
392 413
533 595
380 549
59 390
296 538
128 203
420 422
144 302
42 453
215 333
215 514
39 113
82 461
190 382
110 317
88 406
264 543
161 519
361 437
2 369
19 538
245 471
156 522
16 173
228 355
112 157
25 483
360 385
81 369
40 103
90 169
381 597
501 532
373 494
77 447
146 284
393 505
69 160
100 465
466 486
25 274
173 459
68 518
107 412
86 190
250 424
9 106
184 305
4 87
20 316
391 550
328 427
448 523
393 421
146 508
560 592
417 476
31 122
71 544
260 599
30 321
144 524
405 470
209 452
362 466
337 463
79 433
409 516
97 381
48 57
16 520
277 533
118 414
46 183
254 597
100 370
353 571
202 290
30 247
64 419
257 529
28 208
239 441
151 440
132 257
137 465
199 449
121 231
93 366
257 589
197 347
289 290
443 470
84 521
32 539
287 505
341 468
57 431
39 182
238 506
4 385
348 383
146 565
159 195
77 292
301 337
61 239
287 421
96 437
128 546
281 345
410 511
249 313
49 342
41 553
87 145
176 576
262 369
392 510
189 258
148 305
137 370
16 101
395 579
23 451
111 395
208 209
158 390
449 465
224 445
25 130
150 527
198 567
123 575
353 550
7 305
60 398
54 542
25 123
244 369
95 597
444 447
226 285
164 388
193 208
398 419
203 269
296 305
153 450
138 537
18 523
412 497
476 592
92 177
160 347
126 173
19 305
414 445
154 319
109 385
139 374
483 575
210 359
40 185
591 595
7 74
118 224
218 506
104 374
404 460
342 525
182 505
556 582
323 501
11 205
176 544
10 48
36 518
216 490
93 551
161 188
156 246
77 187
182 421
38 225
26 594
459 495
441 450
427 553
19 74
41 363
52 239
555 587
451 593
124 244
178 379
376 492
126 520
240 349
410 571
162 365
100 306
310 529
150 532
116 459
392 431
57 346
44 518
328 408
322 475
80 566
58 436
242 326
97 597
475 594
504 539
310 589
562 578
90 226
167 391
306 356
192 316
37 389
110 228
55 249
132 509
234 574
320 511
523 561
406 488
10 366
198 480
204 272
209 278
62 411
220 486
357 493
174 330
219 303
74 99
143 177
228 593
171 540
305 528
204 371
69 197
124 262
194 243
212 365
32 596
282 466
406 526
23 440
131 180
6 111
105 287
242 519
96 289
137 306
233 502
410 550
432 437
168 300
51 263
113 398
251 515
363 531
165 329
75 478
102 579
312 540
95 241
214 311
133 530
327 502
221 267
431 542
275 594
14 426
60 500
194 511
300 412
547 551
428 560
96 202
185 291
85 513
191 578
186 242
299 492
323 559
6 491
545 559
67 180
280 486
230 600
26 302
150 483
241 497
251 588
343 599
22 382
150 274
5 362
100 356
147 409
369 447
248 528
409 474
51 297
329 390
345 570
60 64
320 571
250 350
107 300
141 410
103 291
13 201
10 551
24 574
181 569
30 73
63 210
354 581
39 287
1 114
26 524
77 442
73 367
376 435
82 237
122 271
316 420
180 205
203 290
97 241
437 533
137 356
417 560
514 557
276 516
378 439
281 496
28 342
13 215
195 572
117 229
401 479
286 552
373 493
112 129
166 590
117 332
251 397
110 451
246 293
321 358
194 571
216 348
504 596
475 524
61 459
320 550
45 487
153 429
303 378
57 270
60 535
103 164
243 320
358 564
201 583
118 136
275 302
489 492
328 553
88 311
13 56
294 404
240 558
45 432
223 546
43 401
454 507
205 523
394 409
105 393
342 452
224 541
78 427
51 557
76 423
335 460
459 520
39 60
113 500
238 454
172 501
484 498
8 201
5 345
1 458
193 342
479 552
379 521
371 586
240 375
260 304
194 550
206 267
94 463
247 367
255 517
160 193
406 445
338 343
64 398
138 411
275 524
50 212
299 435
199 465
20 372
99 296
80 307
414 541
50 322
302 512
270 547
315 392
352 499
178 521
92 328
8 215
302 344
31 114
54 263
11 176
2 504
339 389
76 461
58 422
456 459
279 555
81 504
52 459
168 567
328 363
74 482
308 488
453 466
227 293
571 578
37 118
69 378
199 370
120 499
308 526
405 492
385 464
154 355
8 56
75 239
265 310
218 454
80 128
462 487
517 567
344 594
110 440
39 393
512 594
364 488
87 464
524 556
200 378
511 578
99 148
364 526
84 154
54 297
47 174
341 572
443 492
325 568
291 491
35 580
113 535
302 556
424 500
56 315
337 385
151 494
315 534
177 360
60 424
284 309
133 388
123 298
268 466
260 351
2 124
215 315
15 503
31 458
172 559
107 567
189 273
91 401
130 540
143 328
81 124
170 577
21 417
2 444
195 208
90 309
272 369
225 404
262 504
81 444
166 455
415 448
11 259
181 433
53 525
202 203
50 162
244 504
238 471
25 295
83 373
168 480
78 408
491 530
209 439
307 487
98 293
490 509
1 285
269 290
9 229
64 500
323 418
15 317
119 369
9 332
136 214
261 309
487 522
283 358
532 540
376 518
115 417
147 502
54 557
66 177
307 432
276 474
413 547
224 364
199 306
102 395
38 425
333 392
33 540
129 580
191 484
192 372
369 442
424 535
258 574
211 479
234 243
378 468
257 316
381 412
30 367
527 540
493 569
405 435
399 538
51 413
107 480
262 444
65 401
218 471
34 338
38 294
398 500
221 446
95 127
344 524
111 185
128 437
512 524
29 244
202 546
113 424
244 444
284 402
24 179
188 563
234 511
51 256
522 566
40 111
289 546
254 412
278 525
49 200
86 88
241 255
5 496
308 445
231 430
6 276
279 476
250 287
224 308
90 402
221 536
146 271
23 494
64 535
82 236
20 436
42 282
210 527
333 534
299 518
31 285
154 593
434 478
80 462
394 502
364 445
74 399
141 353
466 564
29 262
40 491
196 328
142 506
117 314
372 436
177 531
141 498
199 356
297 547
233 291
155 457
99 248
406 541
89 116
188 254
552 577
515 555
326 563
123 359
214 414
72 115
95 412
540 559
99 184
157 580
261 402
24 243
209 219
145 554
180 259
97 127
355 503
438 545
442 539
488 526
48 366
492 561
49 69
243 410
431 557
398 535
234 571
51 510
25 368
391 562
411 456
285 423
310 316
230 587
78 553
179 374
352 434
185 530
70 539
220 221
117 420
12 387
21 428
24 511
75 459
292 447
330 360
198 517
380 566
93 583
61 75
421 580
264 338
210 532
300 567
343 351
428 515
208 378
213 490
429 495
191 258
187 244
99 538
120 434
175 482
76 237
338 599
324 384
211 286
246 269
15 228
32 377
489 518
27 79
53 452
60 350
132 529
206 446
359 540
103 530
128 289
285 461
234 550
132 589
97 412
347 354
41 145
295 387
322 528
79 373
154 181
214 224
428 588
115 428
169 252
139 574
171 172
11 71
74 582
64 424
172 418
73 486
361 549
104 574
195 342
54 413
78 363
48 551
314 490
128 202
60 113
294 343
250 393
353 562
542 547
187 262
206 536
18 67
150 295
209 468
319 503
112 245
188 381
2 32
403 477
260 426
51 431
54 256
17 525
88 414
388 558
2 77
116 126
134 242
151 493
4 174
528 556
217 545
24 571
417 515
85 576
43 592
71 85
217 323
117 213
38 318
52 75
230 325
253 447
210 483
106 310
105 112
192 436
450 495
135 495
59 539
62 138
547 583
259 448
37 488
210 274
45 96
164 349
324 477
538 582
2 390
370 469
300 480
82 231
37 526
405 518
440 569
433 521
418 467
94 385
231 261
73 206
387 438
81 390
398 424
101 537
442 596
417 588
227 269
66 328
235 327
220 564
278 452
520 537
326 381
96 549
24 550
108 242
60 182
443 518
247 486
10 583
109 174
85 544
70 596
474 481
412 590
286 568
28 200
99 305
342 439
25 467
253 292
35 419
203 546
9 314
25 312
530 558
113 350
110 494
20 422
356 404
42 585
15 451
96 277
457 570
11 18
88 224
351 449
54 510
62 598
34 335
332 490
229 490
254 300
117 265
43 251
39 112
396 477
330 531
223 437
141 391
83 357
372 422
308 541
346 392
280 564
410 562
29 81
45 595
51 346
122 423
153 499
145 416
385 463
174 177
121 183
3 490
166 472
53 278
262 390
341 342
479 568
304 449
9 420
193 200
213 348
276 394
231 573
423 430
251 552
365 538
367 446
279 560
158 539
272 504
364 541
495 537
87 463
415 561
91 592
225 343
18 443
118 396
244 390
18 131
188 597
21 211
274 387
1 169
28 69
252 458
277 380
357 593
98 269
246 290
185 388
102 103
25 171
441 499
95 300
58 334
429 520
61 126
162 482
257 372
23 493
122 461
268 281
367 536
150 368
175 399
219 378
119 504
59 596
156 293
408 554
516 579
494 503
265 509
531 553
314 348
142 454
129 419
96 223
49 303
54 431
251 279
345 367
114 252
267 457
346 534
378 572
86 214
113 182
159 347
368 527
165 253
258 511
89 495
135 173
103 388
115 211
220 280
212 482
326 597
147 291
53 159
186 563
256 392
432 549
15 440
155 268
226 309
241 590
92 427
164 558
272 444
264 335
292 442
136 384
37 445
151 319
18 405
462 595
9 213
320 562
91 251
473 495
17 452
211 230
149 264
431 510
131 266
40 276
290 546
65 592
309 402
38 543
343 426
97 300
450 520
119 124
135 520
164 375
231 284
218 238
412 455
64 350
339 488
482 528
168 517
223 289
227 290
30 486
31 169
52 126
119 444
192 422
510 534
45 361
231 508
339 526
259 415
130 172
381 567
147 164
415 470
163 417
243 353
544 576
186 254
560 577
83 178
188 241
368 532
373 593
182 245
76 236
243 498
194 562
58 383
305 594
51 270
64 113
102 185
158 596
67 266
355 451
258 571
332 348
256 534
157 419
175 582
229 348
139 179
138 598
68 523
266 448
310 372
490 529
55 374
136 477
104 179
213 216
318 425
308 364
49 209
54 346
60 287
143 427
254 567
252 285
490 589
269 546
231 565
245 505
313 320
307 595
352 478
3 348
30 206
166 186
12 217
88 136
107 517
9 265
253 442
321 446
224 548
329 539
245 421
101 411
216 400
63 387
1 226
142 471
65 251
177 207
233 530
342 468
294 599
434 459
401 600
33 172
282 358
263 392
150 467
111 491
258 550
120 478
41 464
150 312
79 357
248 594
226 402
83 379
191 273
6 133
202 437
145 196
414 548
327 530
454 580
488 541
533 591
375 409
321 536
98 290
64 182
140 340
82 121
139 243
289 437
368 483
303 485
95 567
526 584
381 480
104 243
10 13
149 469
563 590
476 577
273 288
281 283
448 489
155 453
118 324
170 479
486 564
89 173
92 408
50 175
566 595
515 560
23 319
189 288
62 441
162 399
107 168
42 362
380 462
205 443
186 381
319 451
123 527
139 511
11 448
241 455
57 333
133 349
106 257
104 511
57 514
17 278
209 572
408 416
257 436
254 480
397 417
110 493
174 328
355 440
338 351
455 563
461 573
100 232
427 464
263 534
481 579
72 417
302 475
132 192
165 447
150 171
89 520
153 434
51 54
28 303
34 38
483 527
423 573
212 399
35 398
113 287
36 523
305 524
259 561
189 234
298 387
106 117
124 204
31 226
27 110
351 465
97 567
201 547
293 546
146 423
339 445
386 579
181 373
307 361
473 520
277 522
358 466
60 393
248 302
53 439
69 485
118 403
137 232
173 456
159 193
143 408
95 480
76 231
390 586
54 270
44 523
89 101
196 427
74 212
311 384
536 570
317 503
329 596
304 465
123 532
74 322
513 576
18 489
205 405
200 485
351 370
3 216
163 428
139 571
446 570
165 292
193 303
225 599
132 316
73 221
122 237
17 159
104 571
568 588
224 407
202 289
42 345
146 461
37 541
118 584
248 524
472 519
240 386
140 354
404 449
483 532
162 582
62 153
49 160
79 178
47 94
304 370
239 473
319 440
243 391
383 490
235 579
392 514
195 200
167 313
129 398
267 268
249 374
266 415
513 544
310 436
139 550
75 126
186 597
283 446
461 508
151 355
224 406
210 295
284 430
106 509
272 390
170 286
97 480
24 191
104 550
28 209
311 477
212 582
460 469
300 517
179 574
48 583
92 553
334 490
423 508
120 239
142 218
278 439
123 483
180 448
165 187
123 274
90 430
259 470
16 537
283 536
35 500
232 425
87 385
233 388
124 586
119 390
138 441
113 393
79 379
156 269
211 600
461 565
83 521
569 593
74 162
133 558
78 145
100 225
128 549
327 388
323 540
77 369
64 287
112 507
53 219
240 481
70 377
193 209
423 565
315 366
232 294
268 358
35 64
261 430
203 437
328 464
279 515
204 244
20 334
133 375
406 548
397 428
164 240
110 319
128 277
92 363
145 337
73 564
116 456
183 458
196 408
387 501
72 428
428 552
11 415
137 225
71 180
375 502
157 398
15 494
143 553
304 306
257 422
234 562
1 309
14 264
58 336
324 339
123 130
66 427
279 588
345 486
412 472
144 365
313 410
370 460
336 509
12 438
86 384
27 83
204 262
186 241
147 530
251 568
131 205
171 545
35 535
134 161
395 491
129 500
5 283
415 492
171 323
407 477
6 409
37 364
267 453
301 360
294 304
312 545
126 537
315 551
521 569
46 252
23 355
138 153
312 323
417 552
351 356
266 561
59 377
163 211
247 564
555 560
143 363
111 276
53 468
49 197
338 426
295 438
246 546
188 412
128 223
210 368
361 566
279 397
17 53
177 330
165 442
222 384
339 541
67 205
205 489
63 217
437 522
108 161
422 490
265 529
20 383
17 439
455 597
86 477
304 356
84 503
1 76
12 150
342 572
265 589
42 496
335 449
5 42
47 66
387 559
151 593
334 348
393 507
24 562
64 393
40 133
28 160
208 485
176 180
230 555
134 563
145 301
31 309
372 383
30 221
37 308
558 579
203 289
394 530
318 543
94 174
102 111
129 535
90 261
310 422
290 437
214 396
333 366
73 280
142 238
1 402
18 299
326 412
80 487
175 212
157 500
401 587
386 395
14 469
175 322
183 285
61 456
5 30
156 290
76 121
192 334
352 459
406 407
84 317
474 516
96 566
222 477
294 351
287 507
340 378
199 232
241 472
180 415
80 432
196 553
35 424
34 404
11 561
93 547
350 506
391 578
436 490
108 563
227 546
66 408
102 491
134 254
50 296
41 463
122 236
146 237
278 468
107 166
152 331
158 377
232 318
153 478
120 459
415 435
181 357
492 518
421 500
349 579
98 203
347 525
79 521
170 230
172 540
508 573
355 494
47 554
266 470
322 594
284 573
238 505
376 523
269 437
6 40
425 543
4 94
225 304
31 76
308 548
235 395
404 465
238 421
13 542
16 411
496 536
209 342
356 599
441 478
72 211
247 280
197 340
225 260
90 573
95 107
151 181
333 551
2 539
132 372
317 451
167 249
185 349
374 574
56 392
108 254
364 548
81 539
231 271
124 165
50 148
196 363
182 507
195 303
17 219
157 535
301 531
52 456
381 517
215 392
105 250
29 204
31 402
274 438
210 467
223 549
427 463
21 401
491 558
207 554
281 570
88 396
210 312
353 578
82 183
239 352
291 409
30 564
60 112
57 315
459 537
515 588
224 311
129 424
348 420
261 573
23 593
192 383
147 388
218 505
213 400
103 349
339 364
127 242
98 546
223 277
306 425
254 517
421 535
218 421
136 339
69 140
160 340
264 404
299 523
101 138
26 365
134 381
362 446
55 574
179 243
25 210
541 548
8 542
319 494
32 119
49 378
11 470
110 355
131 176
97 107
73 220
497 519
477 584
225 351
432 566
115 401
56 534
10 547
164 235
28 197
220 466
130 545
262 539
15 493
215 534
230 476
314 400
130 323
309 430
78 464
284 508
38 338
6 502
39 250
179 511
362 536
114 146
244 539
411 495
500 506
293 437
90 284
236 458
126 411
221 457
95 517
180 561
219 485
199 225
259 492
269 289
524 528
317 440
66 553
322 524
17 468
22 190
90 508
67 176
188 300
108 381
84 228
149 460
83 154
133 240
195 209
162 212
559 575
162 322
302 528
58 106
122 231
329 377
214 324
197 354
100 425
508 565
174 427
280 466
101 598
193 197
96 307
284 565
157 424
187 204
325 417
410 578
532 545
77 504
2 596
316 490
139 191
261 284
14 34
313 353
258 562
308 407
205 299
23 181
275 365
81 596
29 586
104 191
387 418
520 598
439 485
153 239
211 587
33 545
155 282
281 321
313 498
191 288
489 523
261 508
388 481
33 323
100 294
90 565
131 259
232 543
20 58
212 322
527 545
476 479
30 280
364 407
18 376
137 425
32 272
95 168
43 577
421 424
347 452
32 371
179 571
97 517
66 363
96 128
181 379
379 503
185 558
415 518
47 416
546 595
226 430
63 438
332 400
308 406
229 400
160 354
35 350
4 66
37 222
184 512
445 477
134 597
50 248
261 565
191 234
137 294
123 295
335 465
214 403
178 503
184 344
328 463
185 375
40 409
77 124
67 259
416 531
50 184
364 406
3 400
488 548
106 529
303 341
36 67
294 426
77 444
495 598
68 443
24 141
103 558
360 554
20 336
106 589
132 436
346 366
68 131
186 412
262 596
35 113
180 470
179 550
405 523
282 446
444 504
482 594
53 572
259 435
207 416
350 454
335 370
244 596
214 584
88 324
51 333
206 457
391 484
202 549
103 375
320 578
324 389
97 168
51 514
84 451
211 325
44 67
236 285
52 61
108 597
289 549
419 506
3 132
443 523
178 317
146 236
110 593
63 150
184 556
148 512
282 536
50 538
164 386
239 450
355 493
187 586
349 395
148 344
75 456
306 318
202 277
7 512
13 263
428 568
4 554
249 574
174 408
7 344
296 512
311 339
366 542
129 350
257 334
15 319
91 577
170 600
298 438
291 502
296 344
194 578
35 182
28 378
361 462
102 276
19 512
68 405
467 501
5 570
69 341
64 112
188 567
19 344
260 264
452 485
411 520
45 156
150 210
426 469
346 551
447 586
252 309
88 403
316 348
41 87
256 366
134 241
353 484
359 545
336 529
13 297
30 220
200 341
161 242
139 562
56 57
278 572
148 556
336 589
111 133
104 562
325 428
109 554
34 343
368 467
555 588
344 365
79 154
92 145
7 556
149 199
438 575
141 313
37 548
118 382
417 568
193 378
296 556
36 443
74 175
10 93
36 131
266 492
454 500
88 584
100 318
8 263
246 437
225 426
12 501
55 179
202 223
164 481
37 86
84 440
457 486
230 560
326 567
41 385
19 556
309 573
80 96
156 203
319 493
123 368
38 335
96 462
265 316
315 583
110 181
313 391
108 241
482 524
510 551
350 471
155 585
226 261
255 497
192 336
44 443
65 577
50 305
129 182
45 591
44 131
369 504
157 350
374 511
233 349
137 318
43 65
257 383
53 208
47 196
153 459
188 480
152 569
205 376
8 297
345 564
101 441
256 551
166 326
467 559
292 369
295 501
367 457
181 521
327 349
310 334
303 581
13 557
87 174
279 552
380 487
50 74
54 333
168 198
54 514
55 243
143 145
221 268
83 84
29 165
371 447
76 183
240 516
133 235
21 592
128 566
36 405
124 329
260 469
146 231
410 484
5 321
360 416
252 402
166 519
380 432
441 459
263 366
224 414
178 228
132 422
67 71
454 535
174 553
267 282
227 437
80 595
156 546
11 492
335 356
217 575
264 343
55 511
389 477
5 247
552 600
326 480
276 327
86 339
140 525
44 405
12 559
226 573
259 518
369 444
453 536
40 502
183 226
374 571
272 539
112 580
107 198
239 429
115 592
306 543
186 300
266 435
268 446
309 508
8 557
157 182
462 591
23 125
246 289
17 572
203 549
69 581
4 416
199 425
253 369
136 389
195 197
14 460
286 417
271 458
37 407
432 462
6 291
317 494
119 539
117 490
174 363
295 559
21 251
222 339
310 383
277 293
200 581
35 287
101 153
268 536
77 390
203 277
199 294
123 467
374 550
263 551
220 281
333 583
308 311
123 312
309 565
142 505
288 320
78 463
68 489
120 126
465 543
48 547
55 571
144 482
142 421
480 563
320 484
98 437
419 454
163 401
71 266
20 106
37 406
379 451
109 416
16 138
431 514
331 569
339 548
185 240
206 268
85 180
6 164
100 543
307 591
274 501
115 251
231 423
226 284
534 542
448 513
233 558
221 453
95 166
178 451
429 537
46 146
321 457
280 281
383 400
208 341
318 338
80 361
11 435
166 188
15 355
227 289
226 508
35 60
55 550
194 484
327 558
26 99
1 430
233 375
103 240
433 503
123 171
152 433
137 543
203 223
180 492
485 525
12 25
129 287
24 104
173 495
73 466
327 375
393 580
58 229
231 461
133 386
334 400
61 116
328 385
272 596
13 413
58 332
189 194
409 579
16 598
375 530
226 565
13 256
234 578
128 307
24 139
566 591
2 377
290 549
449 543
79 84
81 377
106 192
515 552
347 439
450 537
111 409
97 166
135 537
240 474
119 596
121 252
271 285
53 342
155 362
343 469
47 337
17 208
35 393
176 266
34 599
287 580
142 157
18 513
337 554
139 141
379 440
434 456
36 489
141 249
42 283
127 161
126 138
281 367
104 141
267 585
186 567
249 511
70 119
274 559
397 401
493 521
140 452
551 557
98 289
43 91
179 191
22 88
198 497
72 401
419 471
178 440
117 348
5 73
92 464
247 466
90 271
340 485
31 430
458 573
8 413
69 195
44 489
52 116
356 426
269 549
223 566
147 349
286 428
401 555
371 442
170 587
133 481
98 202
106 316
207 337
4 196
27 331
9 490
206 453
8 256
51 315
157 287
366 557
266 518
195 378
110 125