100 705
10 79
19 86
29 86
12 45
7 73
20 26
37 51
9 26
30 74
2 71
15 19
4 23
3 13
20 71
13 29
14 79
9 71
21 50
17 37
2 82
16 60
1 10
30 86
81 82
16 56
16 36
13 19
11 74
4 86
54 89
3 6
4 16
6 8
1 21
51 84
58 79
37 82
1 85
11 14
15 25
6 67
15 60
6 7
6 95
15 56
15 36
1 52
49 89
7 10
38 91
2 37
3 58
6 36
8 19
2 93
50 71
17 81
3 54
21 26
10 84
1 90
48 81
56 89
19 21
60 89
1 72
21 71
1 50
18 69
2 92
7 52
8 67
8 25
26 58
5 50
16 49
4 10
79 91
7 90
46 91
36 72
17 40
9 20
7 72
7 50
54 84
7 34
6 43
4 85
1 51
19 50
15 49
37 81
3 86
12 68
29 50
12 41
10 38
40 63
3 16
4 52
5 51
49 84
10 69
11 52
8 45
3 73
1 71
71 74
5 26
6 87
26 74
36 51
30 50
12 14
14 38
4 90
7 51
1 82
9 40
71 86
84 89
4 72
6 6
26 86
4 50
56 84
60 84
16 54
1 12
17 48
11 50
37 40
10 42
8 49
20 64
5 12
19 26
7 71
9 64
17 89
51 63
36 82
19 71
7 82
15 54
10 30
13 15
48 89
13 58
1 37
29 71
2 98
2 46
3 10
1 93
20 46
7 12
4 51
17 32
64 79
9 46
2 48
14 30
3 21
1 35
10 91
30 71
40 60
1 92
10 63
40 56
36 37
2 79
81 89
4 71
5 35
7 37
8 58
20 79
37 48
74 86
5 92
2 17
50 64
9 79
2 59
6 23
14 91
13 68
16 73
5 9
37 89
6 74
1 81
1 20
9 59
11 82
21 64
15 86
13 74
3 90
15 16
1 2
12 52
5 81
5 20
11 12
6 14
3 72
3 50
3 34
10 29
10 75
13 86
58 91
54 63
13 14
13 16
17 84
21 46
10 19
6 73
51 60
36 81
4 37
48 84
7 81
51 56
38 58
50 79
11 18
12 72
14 29
49 63
8 74
1 40
11 93
19 20
14 31
26 50
4 35
14 19
21 79
8 86
8 14
40 49
3 51
2 84
81 84
56 63
4 9
60 63
9 84
8 73
36 40
7 40
37 84
11 20
3 82
4 27
1 46
46 58
38 74
1 48
6 85
5 46
13 21
38 86
54 60
16 72
19 64
54 56
10 45
26 71
1 89
6 52
29 64
1 79
40 54
7 98
20 38
4 40
1 17
7 46
8 10
5 89
9 38
3 37
2 11
2 69
3 18
49 60
5 79
36 48
49 56
9 55
7 48
19 46
5 17
15 72
1 77
30 64
29 46
13 90
3 88
72 82
6 50
36 89
18 62
4 64
7 89
46 74
13 50
2 4
10 13
16 51
12 37
13 34
79 86
56 60
7 17
19 79
46 86
30 46
3 9
29 79
14 49
17 63
51 54
16 71
15 51
48 63
11 46
20 30
1 24
64 91
16 82
8 34
9 30
30 79
21 38
16 61
10 58
1 84
13 26
11 79
20 91
2 63
63 72
5 84
15 82
17 75
9 91
1 28
13 71
6 82
4 77
14 58
16 37
17 19
5 28
8 51
37 63
36 84
6 12
72 81
7 84
38 50
3 64
15 37
2 29
21 30
20 29
10 74
1 38
9 29
2 44
17 60
50 91
2 19
1 55
17 56
17 36
1 11
48 60
10 86
10 14
3 46
9 19
48 56
5 70
14 23
49 54
16 81
5 69
21 91
14 74
6 35
4 84
2 8
26 64
5 94
63 82
1 4
13 92
14 86
2 7
3 89
46 50
7 55
9 67
2 60
8 37
7 11
15 81
19 38
58 74
2 36
3 17
38 71
26 46
29 38
86 91
9 56
40 72
13 20
58 86
6 27
16 40
37 60
37 56
82 89
21 29
71 79
5 30
30 38
26 79
4 38
12 32
17 49
4 70
1 91
15 40
1 63
4 11
72 89
48 49
4 94
40 51
2 39
5 91
10 21
46 71
19 30
2 5
29 30
51 72
10 52
63 81
16 48
36 63
14 21
7 63
13 64
2 13
40 82
19 91
9 49
1 29
4 76
1 75
16 89
29 91
10 90
9 13
14 52
6 98
74 79
37 49
6 46
16 17
1 19
10 50
15 48
13 98
17 54
13 46
82 84
11 30
2 6
48 54
30 91
1 83
15 89
4 91
14 50
15 17
4 63
2 15
1 25
1 7
2 58
72 84
1 95
19 29
13 79
6 17
20 58
1 60
9 15
9 58
1 56
1 36
51 82
5 7
5 95
3 55
2 54
54 72
10 80
5 56
9 54
5 36
13 32
10 26
37 54
12 70
7 7
49 72
10 71
36 60
4 29
7 60
64 74
36 56
26 38
38 64
7 56
16 84
7 36
40 81
8 17
3 22
3 42
14 26
8 59
2 41
4 19
64 86
2 23
1 45
10 12
50 58
14 71
2 74
63 89
56 72
1 39
20 74
60 72
38 46
5 45
9 74
1 5
15 84
11 99
5 39
21 58
20 86
49 51
6 84
9 86
9 14
5 43
4 95
4 7
58 71
10 37
1 49
54 82
2 73
4 56
3 91
38 79
11 60
3 63
46 64
51 81
26 30
49 82
14 93
50 74
36 49
7 49
71 91
5 6
26 91
7 13
50 86
21 74
10 20
10 81
4 45
56 82
3 29
1 15
60 82
3 75
2 47
13 38
63 84
2 10
6 11
6 69
10 27
21 86
40 48
46 79
1 54
9 10
4 43
14 20
2 21
40 89
20 21
17 72
3 8
9 21
7 15
26 29
48 72
12 19
4 13
2 52
8 38
54 81
15 76
3 95
7 62
36 54
19 58
3 60
7 54
8 11
29 58
1 41
3 56
3 36
16 63
74 91
4 6
1 74
49 81
5 41
10 64
13 30
12 25
2 72
17 51
5 74
20 50
1 86
30 58
1 14
9 50
12 56
1 16
12 36
48 51
51 89
15 63
4 15
6 91
5 14
10 98
3 53
56 81
37 72
5 16
14 64
10 46
60 81
11 58
13 91
1 73
8 76
7 74
4 100
3 39
19 74
17 82
7 86
40 84
29 74
7 14
2 51
16 19
6 66
7 16
3 5
14 46
48 82
58 64
64 71
