100 970
0 0 1 1 1 1 1 1 1 1 1 1 1 1 1 1 1 1 1 1 1 1 1 1 1 1 1 1 1 1 1 1 1 1 1 1 1 1 1 1 1 1 1 1 1 1 1 1 1 1 1 1 1 1 1 1 1 1 1 1 1 1 1 1 1 1 1 1 1 1 1 1 1 1 1 1 1 1 1 1 1 1 1 1 1 1 1 1 1 1 1 1 1 1 1 1 1 1 1 1 
9 51
44 86
47 52
2 26
10 17
74 99
8 91
83 91
37 51
54 98
4 68
15 44
3 33
9 26
8 63
30 74
10 32
4 23
3 13
44 73
6 31
12 43
28 92
11 41
9 71
55 96
17 37
11 23
13 44
43 75
38 76
14 17
77 94
17 93
69 74
11 74
59 94
89 93
37 71
4 86
4 14
5 10
4 16
65 76
6 8
9 61
76 91
46 94
94 97
26 33
11 16
34 51
73 78
17 92
12 87
98 100
4 73
6 7
7 47
25 47
24 74
23 72
6 60
68 72
49 89
7 10
22 40
3 15
40 94
8 31
13 95
38 91
11 73
8 44
23 78
2 18
68 78
10 24
13 60
31 47
2 93
52 84
43 95
5 52
9 37
34 71
32 74
53 89
49 59
65 91
43 56
8 83
3 100
35 54
8 8
49 77
27 35
18 55
52 65
56 89
1 72
20 35
1 34
53 59
77 97
35 100
93 94
33 72
1 78
59 97
25 52
7 52
64 81
10 28
8 25
33 78
9 92
21 82
53 77
5 34
56 59
61 94
75 89
31 52
46 97
8 36
21 61
2 96
22 46
16 33
37 92
56 77
2 3
3 68
51 69
43 53
3 41
23 26
27 81
3 23
42 99
20 81
76 83
34 37
40 97
54 84
7 34
7 78
20 27
75 77
13 43
44 72
42 67
22 89
3 86
38 83
41 82
15 33
3 14
44 78
3 16
84 98
54 65
8 53
5 51
21 93
42 60
1 26
41 61
10 55
45 51
26 68
94 95
10 69
10 11
34 92
13 49
22 59
65 83
13 33
59 75
93 97
3 73
71 74
13 13
43 49
22 77
36 51
30 34
14 38
61 97
1 82
46 75
5 71
14 55
4 72
45 71
26 86
4 34
1 61
19 51
4 78
41 93
52 76
11 34
10 42
40 75
27 64
28 32
64 98
36 71
8 33
20 64
78 86
72 86
26 73
9 64
77 95
42 45
59 95
47 81
19 71
10 30
13 15
6 62
30 51
1 18
27 98
24 34
6 54
73 96
20 98
72 73
46 95
81 98
16 68
35 47
86 96
29 82
16 23
5 37
10 97
52 91
17 32
6 100
5 18
46 56
49 94
1 88
23 96
11 51
18 44
68 96
29 61
61 75
32 34
14 30
40 95
1 35
4 26
92 99
30 71
3 85
16 86
53 94
40 56
21 40
36 37
54 76
15 68
5 35
7 37
15 23
60 69
5 92
67 69
56 94
69 71
11 71
45 92
6 23
24 51
35 52
1 96
13 68
8 54
9 17
1 3
16 73
46 53
5 9
1 20
33 96
13 23
93 95
8 100
29 93
83 100
15 86
4 12
7 35
25 35
51 99
13 74
36 92
75 94
9 32
15 16
32 51
47 64
1 2
17 24
7 92
61 95
40 53
3 72
54 91
31 35
24 71
10 75
13 86
3 78
13 14
30 37
51 67
15 73
13 16
49 97
21 46
91 100
6 73
51 60
47 98
4 18
52 83
32 71
7 20
25 81
7 81
13 73
22 94
11 37
17 28
53 97
76 100
10 99
46 49
40 43
44 96
64 84
7 27
25 27
31 81
30 92
14 44
38 54
26 72
56 97
21 89
26 78
40 49
38 100
9 24
10 67
64 65
10 95
28 69
27 84
41 46
10 60
69 92
24 37
21 59
20 84
81 84
11 92
75 97
10 36
9 84
3 26
65 100
72 78
21 77
4 96
2 65
27 65
3 71
4 20
32 37
42 74
20 65
49 75
11 96
9 28
54 83
41 89
18 33
17 69
24 92
29 40
28 42
53 75
22 97
89 94
3 61
41 59
7 64
25 64
3 12
16 90
32 92
56 75
41 77
16 72
28 30
31 64
10 45
1 89
6 52
16 78
2 38
27 38
8 47
7 98
25 98
17 42
20 38
49 95
2 55
3 37
2 11
3 18
60 99
49 56
67 99
31 98
9 55
9 69
5 17
15 72
9 11
53 95
29 46
47 84
15 78
17 30
84 91
18 62
53 56
60 67
5 32
37 69
4 64
7 89
56 95
13 72
64 76
2 4
22 29
22 75
13 78
11 64
40 41
8 52
89 97
47 65
7 17
2 22
82 93
29 89
3 9
16 26
75 95
49 53
9 42
27 76
14 33
4 46
20 76
3 96
38 47
29 59
9 76
3 20
12 92
37 42
1 24
34 69
64 91
71 92
18 68
35 81
29 77
9 30
18 23
15 26
16 61
5 24
22 95
52 54
12 20
28 99
27 91
13 26
21 94
22 56
52 100
20 91
81 91
26 96
30 32
18 86
38 52
9 91
11 17
34 42
14 15
17 31
51 74
15 61
28 67
16 18
5 28
78 96
11 32
72 96
18 73
28 60
21 22
25 84
7 84
20 66
23 55
43 82
17 99
28 36
22 53
41 94
43 61
31 84
12 40
7 65
25 65
47 76
15 18
17 67
24 32
35 64
10 74
74 92
64 83
89 95
27 31
2 44
17 60
54 100
20 31
31 65
1 55
17 36
13 18
21 97
22 43
3 98
42 51
14 68
33 55
16 96
14 41
10 16
14 23
11 24
35 98
43 93
5 69
27 83
5 11
28 45
20 83
81 83
9 99
45 69
22 49
47 91
1 4
7 38
14 86
25 38
42 71
14 14
37 99
15 96
14 16
20 25
36 69
9 67
7 11
2 56
41 97
31 38
11 28
3 17
9 60
44 55
17 45
5 42
14 73
13 96
37 67
15 27
9 36
37 60
29 94
8 35
82 89
21 29
21 75
5 30
36 42
24 28
34 99
30 69
7 76
25 76
18 72
4 55
18 78
60 74
34 67
8 20
8 81
67 74
4 94
31 76
77 82
11 69
9 45
34 60
47 83
59 82
8 27
41 75
34 36
2 5
2 43
95 97
42 92
21 95
59 61
23 44
37 45
30 42
46 82
21 56
7 91
25 91
29 97
46 61
2 33
24 69
22 41
2 13
35 84
40 82
76 81
11 22
84 100
11 42
31 91
16 89
15 46
17 58
55 68
1 31
40 61
6 98
1 44
18 26
77 93
32 69
5 75
59 93
33 44
10 34
41 95
35 65
38 81
34 45
11 30
5 31
2 6
5 44
21 53
41 56
46 93
43 46
24 42
16 77
55 86
65 81
8 64
28 74
5 99
14 72
4 91
45 99
61 82
14 78
2 15
40 93
25 31
7 31
32 42
15 59
7 44
1 7
64 100
51 71
24 30
6 17
1 60
55 73
21 43
29 75
9 15
43 89
8 98
5 67
83 98
1 56
36 99
10 51
3 55
5 95
45 67
27 54
2 54
35 38
13 59
41 53
20 54
5 60
7 83
25 83
4 66
27 100
17 74
5 56
45 60
21 49
5 36
7 8
43 59
20 100
81 100
18 18
36 67
12 38
31 83
43 77
91 98
7 25
10 71
36 60
3 4
7 60
61 93
38 64
41 43
76 98
18 35
26 55
4 44
82 94
2 68
14 26
29 95
8 59
30 99
2 23
3 76
8 32
29 56
41 49
23 33
8 77
38 98
35 76
5 45
9 74
30 67
69 99
11 99
18 96
2 86
2 14
65 98
2 16
51 92
30 60
37 74
12 76
4 25
4 95
30 36
10 37
36 45
11 67
1 33
2 73
4 56
29 53
47 54
1 13
11 60
7 39
24 99
11 56
13 28
11 36
35 91
47 100
1 1
8 24
14 18
82 97
16 55
10 92
49 82
32 99
24 67
34 74
3 66
29 43
8 84
55 72
49 61
83 84
24 60
21 41
52 81
17 85
55 78
53 82
24 36
30 45
60 71
77 89
32 67
67 71
59 89
11 53
15 55
53 61
29 49
8 65
56 82
40 46
1 15
28 34
32 60
27 47
20 47
32 36
2 10
6 69
10 27
11 45
46 89
3 44
56 61
5 15
13 55
4 5
9 10
14 96
75 82
49 93
59 77
76 84
23 68
5 62
14 81
46 59
40 89
12 29
43 94
3 83
17 34
4 49
73 86
53 93
46 77
4 33
24 45
35 83
38 84
4 13
40 59
6 22
27 52
8 38
54 81
28 51
56 93
20 52
23 86
26 44
68 86
22 82
12 99
40 77
7 54
25 54
1 68
65 84
32 45
1 41
38 65
33 68
1 23
52 64
71 99
7 100
25 100
22 61
75 93
31 54
23 73
20 90
68 73
28 71
61 89
60 92
15 97
31 100
2 72
67 92
17 51
5 74
82 95
2 78
1 86
1 14
52 98
45 74
9 34
1 16
33 86
4 15
3 53
43 97
6 63
5 16
61 77
42 69
11 15
22 93
36 74
1 73
8 76
17 71
44 68
33 73
29 41
16 44
54 64
28 37
3 43
10 89