{
    "graphs": [
        "changhonghao.lgz",
        "chesapeakebay.lgz",
        "corporateleaderships.lgz"
    ],
    "nrOfTests": 2,
    "algorithm": "K heavy",
    "parameters": [
        3,
        false,
        4,
        0.5,
        0.0,
        1,
        0.0,
        0.0,
        1,
        0.0
    ]
}